HgeneSymbol	geneAlias1	geneLocus1	ChimerDB_Sanger_geneFunct1	TgeneSymbol	geneAlias2	geneLocus2	ChimerDB_Sanger_geneFunct2	ChimerDB_Sanger_diseaseName
ABL1	JTK7, c-ABL, p150	9q34.1	c-abl oncogene 1, receptor tyrosine kinase	BCR	D22S662, CML, PHL, ALL	22q11	breakpoint cluster region	CML,ALL,T-ALL
ABL1	JTK7, c-ABL, p150	9q34.1	c-abl oncogene 1, receptor tyrosine kinase	ETV6	TEL	12p13	ets variant 6	CML,ALL,T-ALL
ABL1	JTK7, c-ABL, p150	9q34.1	c-abl oncogene 1, receptor tyrosine kinase	NUP214	CAIN, CAN, D9S46E, N214	9q34	nucleoporin 214kDa	CML,ALL,T-ALL
ABL2	ARG	1q25.2	v-abl Abelson murine leukemia viral oncogene homolog 2 (arg, Abelson-related gene)	ETV6	TEL	12p13	ets variant 6	AML
CASC5	D40, AF15Q14, CT29, hKNL-1, KNL1, hSpc105	15q14	cancer susceptibility candidate 5	MLL	TRX1, HRX, ALL-1, HTRX1, CXXC7, MLL1A, KMT2A	11q23	myeloid/lymphoid or mixed-lineage leukemia (trithorax homolog, Drosophila)	AML
MLLT11	AF1Q	1q21	myeloid/lymphoid or mixed-lineage leukemia (trithorax homolog, Drosophila); translocated to, 11	MLL	TRX1, HRX, ALL-1, HTRX1, CXXC7, MLL1A, KMT2A	11q23	myeloid/lymphoid or mixed-lineage leukemia (trithorax homolog, Drosophila)	ALL
NCKIPSD	AF3P21, SPIN90, ORF1, WISH, WASLBP, DIP1	3p21	NCK interacting protein with SH3 domain	MLL	TRX1, HRX, ALL-1, HTRX1, CXXC7, MLL1A, KMT2A	11q23	myeloid/lymphoid or mixed-lineage leukemia (trithorax homolog, Drosophila)	ALL
AFF4	AF5Q31, MCEF	5q31	AF4/FMR2 family, member 4	MLL	TRX1, HRX, ALL-1, HTRX1, CXXC7, MLL1A, KMT2A	11q23	myeloid/lymphoid or mixed-lineage leukemia (trithorax homolog, Drosophila)	ALL
AKAP9	KIAA0803, AKAP350, AKAP450, CG-NAP, YOTIAO, HYPERION, PRKA9, MU-RMS-40.16A	7q21-q22	A kinase (PRKA) anchor protein (yotiao) 9	BRAF	BRAF1	7q34	v-raf murine sarcoma viral oncogene homolog B1	papillarythyroid
ALK	CD246	2p23	anaplastic lymphoma receptor tyrosine kinase	NPM1	B23, NPM	5q35	nucleophosmin (nucleolar phosphoprotein B23, numatrin)	ALCL,NSCLC,Neuroblastoma
ALK	CD246	2p23	anaplastic lymphoma receptor tyrosine kinase	TPM3	TRK	1q21.2	tropomyosin 3	ALCL,NSCLC,Neuroblastoma
ALK	CD246	2p23	anaplastic lymphoma receptor tyrosine kinase	TFG	TF6, FLJ36137	3q12.2	TRK-fused gene	ALCL,NSCLC,Neuroblastoma
ALK	CD246	2p23	anaplastic lymphoma receptor tyrosine kinase	TPM4		19p13.1	tropomyosin 4	ALCL,NSCLC,Neuroblastoma
ALK	CD246	2p23	anaplastic lymphoma receptor tyrosine kinase	ATIC	PURH, AICARFT, IMPCHASE	2q35	5-aminoimidazole-4-carboxamide ribonucleotide formyltransferase/IMP cyclohydrolase	ALCL,NSCLC,Neuroblastoma
ALK	CD246	2p23	anaplastic lymphoma receptor tyrosine kinase	CLTC	Hc	17q11-qter	clathrin, heavy chain (Hc)	ALCL,NSCLC,Neuroblastoma
ALK	CD246	2p23	anaplastic lymphoma receptor tyrosine kinase	MSN		Xq11.1	moesin	ALCL,NSCLC,Neuroblastoma
ALK	CD246	2p23	anaplastic lymphoma receptor tyrosine kinase	CARS	CARS1	11p15.5	cysteinyl-tRNA synthetase	ALCL,NSCLC,Neuroblastoma
ALK	CD246	2p23	anaplastic lymphoma receptor tyrosine kinase	EML4	ROPP120, ELP120	2p21	echinoderm microtubule associated protein like 4	ALCL,NSCLC,Neuroblastoma
ARHGEF12	KIAA0382, LARG	11q23.3	Rho guanine nucleotide exchange factor (GEF) 12	MLL	TRX1, HRX, ALL-1, HTRX1, CXXC7, MLL1A, KMT2A	11q23	myeloid/lymphoid or mixed-lineage leukemia (trithorax homolog, Drosophila)	AML
RHOH	RhoH, TTF	4p13	ras homolog gene family, member H	BCL6	ZBTB27, LAZ3, BCL5, BCL6A	3q27	B-cell CLL/lymphoma 6	NHL
ARNT	HIF-1beta, bHLHe2	1q21	aryl hydrocarbon receptor nuclear translocator	ETV6	TEL	12p13	ets variant 6	AML
ASPSCR1	ASPS, ASPL, UBXD9, UBXN9	17q25	alveolar soft part sarcoma chromosome region, candidate 1	TFE3	TFEA, bHLHe33	Xp11.22	transcription factor binding to IGHM enhancer 3	alveolarsoftpartsarcoma
GDNF	ATF1, ATF2, HFB1-GDNF	5p13.1-p12	glial cell derived neurotrophic factor	EWSR1	EWS	22q12.2	Ewing sarcoma breakpoint region 1	malignantmelanomaofsoftparts,angiomatoidfibroushistiocytoma
GDNF	ATF1, ATF2, HFB1-GDNF	5p13.1-p12	glial cell derived neurotrophic factor	FUS	TLS, FUS1, hnRNP-P2	16p11.2	fusion (involved in t(12;16) in malignant liposarcoma)	malignantmelanomaofsoftparts,angiomatoidfibroushistiocytoma
ATIC	PURH, AICARFT, IMPCHASE	2q35	5-aminoimidazole-4-carboxamide ribonucleotide formyltransferase/IMP cyclohydrolase	ALK	CD246	2p23	anaplastic lymphoma receptor tyrosine kinase	ALCL
BCL10	CARMEN, CIPER, mE10, c-E10, CLAP	1p22	B-cell CLL/lymphoma 10	IGH@	IGH	14q32.32-q32.33	immunoglobulin heavy locus	MALT
BCL11A	BCL11A-XL, BCL11A-L, BCL11A-S, CTIP1, HBFQTL5, ZNF856	2p16.1	B-cell CLL/lymphoma 11A (zinc finger protein)	IGH@	IGH	14q32.32-q32.33	immunoglobulin heavy locus	B-CLL
BCL11B	CTIP-2, CTIP2, hRIT1-alpha	14q32	B-cell CLL/lymphoma 11B (zinc finger protein)	TLX3	RNX	5q35.1	T-cell leukemia homeobox 3	T-ALL
BCL2	Bcl-2	18q21.3	B-cell CLL/lymphoma 2	IGH@	IGH	14q32.32-q32.33	immunoglobulin heavy locus	NHL,CLL
BCL3		19q13.1-q13.2	B-cell CLL/lymphoma 3	IGH@	IGH	14q32.32-q32.33	immunoglobulin heavy locus	CLL
BCL6	ZBTB27, LAZ3, BCL5, BCL6A	3q27	B-cell CLL/lymphoma 6	MYC	c-Myc, bHLHe39	8q24	v-myc myelocytomatosis viral oncogene homolog (avian)	CLL
BCL6	ZBTB27, LAZ3, BCL5, BCL6A	3q27	B-cell CLL/lymphoma 6	IKZF1	hIk-1, LyF-1, Hs.54452, IKAROS	7pter-7qter	IKAROS family zinc finger 1 (Ikaros)	NHL,CLL
BCL6	ZBTB27, LAZ3, BCL5, BCL6A	3q27	B-cell CLL/lymphoma 6	TOX4	LCP1	14q11.2	TOX high mobility group box family member 4	NHL,CLL
BCL6	ZBTB27, LAZ3, BCL5, BCL6A	3q27	B-cell CLL/lymphoma 6	LONP1	LonHS, hLON, PIM1	19p13.2	lon peptidase 1, mitochondrial	NHL,CLL
BCL6	ZBTB27, LAZ3, BCL5, BCL6A	3q27	B-cell CLL/lymphoma 6	TFRC	CD71, TFR1	3q26.2-qter	transferrin receptor (p90, CD71)	NHL,CLL
BCL6	ZBTB27, LAZ3, BCL5, BCL6A	3q27	B-cell CLL/lymphoma 6	CIITA	C2TA, NLRA	16p13	class II, major histocompatibility complex, transactivator	NHL,CLL
BCL6	ZBTB27, LAZ3, BCL5, BCL6A	3q27	B-cell CLL/lymphoma 6	NACA	NACA1	12q23-q24.1	nascent polypeptide-associated complex alpha subunit	NHL,CLL
BCL6	ZBTB27, LAZ3, BCL5, BCL6A	3q27	B-cell CLL/lymphoma 6	HSP90AB1		6p12	heat shock protein 90kDa alpha (cytosolic), class B member 1	NHL,CLL
BCL6	ZBTB27, LAZ3, BCL5, BCL6A	3q27	B-cell CLL/lymphoma 6	HSP90AA1	Hsp89, Hsp90, FLJ31884, HSP90N	14q32.33	heat shock protein 90kDa alpha (cytosolic), class A member 1	NHL,CLL
BCL6	ZBTB27, LAZ3, BCL5, BCL6A	3q27	B-cell CLL/lymphoma 6	HIST1H4I	H4/m	6p22.1	histone cluster 1, H4i	NHL,CLL
BCL6	ZBTB27, LAZ3, BCL5, BCL6A	3q27	B-cell CLL/lymphoma 6	IL21R		16p11	interleukin 21 receptor	NHL,CLL
BCL6	ZBTB27, LAZ3, BCL5, BCL6A	3q27	B-cell CLL/lymphoma 6	POU2AF1	OBF1	11q23.1	POU class 2 associating factor 1	NHL,CLL
BCL6	ZBTB27, LAZ3, BCL5, BCL6A	3q27	B-cell CLL/lymphoma 6	RHOH	RhoH, TTF	4p13	ras homolog gene family, member H	NHL,CLL
BCL6	ZBTB27, LAZ3, BCL5, BCL6A	3q27	B-cell CLL/lymphoma 6	EIF4A2	DDX2B, EIF4A, BM-010	3q28	eukaryotic translation initiation factor 4A, isoform 2	NHL,CLL
BCL6	ZBTB27, LAZ3, BCL5, BCL6A	3q27	B-cell CLL/lymphoma 6	SFRS3	SRp20	6p21	splicing factor, arginine/serine-rich 3	NHL,CLL
BCL7A		12q24.1	B-cell CLL/lymphoma 7A	MYC	c-Myc, bHLHe39	8q24	v-myc myelocytomatosis viral oncogene homolog (avian)	BNHL
BCL9		1q21	B-cell CLL/lymphoma 9	IGH@	IGH	14q32.32-q32.33	immunoglobulin heavy locus	B-ALL
BCL9		1q21	B-cell CLL/lymphoma 9	IGL@	IGL	22q11.2	immunoglobulin lambda locus	B-ALL
BCR	D22S662, CML, PHL, ALL	22q11	breakpoint cluster region	ABL1	JTK7, c-ABL, p150	9q34.1	c-abl oncogene 1, receptor tyrosine kinase	CML,ALL,AML
BCR	D22S662, CML, PHL, ALL	22q11	breakpoint cluster region	FGFR1	H2, H3, H4, H5, CEK, FLG, BFGFR, N-SAM, CD331	8p12	fibroblast growth factor receptor 1	CML,ALL,AML
BCR	D22S662, CML, PHL, ALL	22q11	breakpoint cluster region	JAK2	JTK10	9p24	Janus kinase 2 (a protein tyrosine kinase)	CML,ALL,AML
BIRC3	cIAP2, hiap-1, MIHC, RNF49, MALT2, c-IAP2	11q22	baculoviral IAP repeat-containing 3	MALT1		18q21	mucosa associated lymphoid tissue lymphoma translocation gene 1	MALT
BRAF	BRAF1	7q34	v-raf murine sarcoma viral oncogene homolog B1	AKAP9	KIAA0803, AKAP350, AKAP450, CG-NAP, YOTIAO, HYPERION, PRKA9, MU-RMS-40.16A	7q21-q22	A kinase (PRKA) anchor protein (yotiao) 9	melanoma,colorectal,papillarythyroid,borderlineov,Nonsmall-celllungcancer(NSCLC),cholangiocarcinoma,pilocyticastrocytoma
BRAF	BRAF1	7q34	v-raf murine sarcoma viral oncogene homolog B1	KIAA1549		7q34	KIAA1549	melanoma,colorectal,papillarythyroid,borderlineov,Nonsmall-celllungcancer(NSCLC),cholangiocarcinoma,pilocyticastrocytoma
BRD4	HUNKI, MCAP, CAP, HUNK1	19	bromodomain containing 4	C15ORF55	NUT, DKFZp434O192	15q14	chromosome 15 open reading frame 55	lethalmidlinecarcinomaofyoungpeople
BTG1		12q22	B-cell translocation gene 1, anti-proliferative	MYC	c-Myc, bHLHe39	8q24	v-myc myelocytomatosis viral oncogene homolog (avian)	BCLL
C12ORF9	LPP-LRFT	12	chromosome 12 open reading frame 9	LPP		3q27-q28	LIM domain containing preferred translocation partner in lipoma	lipoma
C15ORF21	FLJ39426, D-PCa-2	15q15.1	chromosome 15 open reading frame 21	ETV1	ER81	7p22	ets variant 1	prostate
CARS	CARS1	11p15.5	cysteinyl-tRNA synthetase	ALK	CD246	2p23	anaplastic lymphoma receptor tyrosine kinase	ALCL
RUNX1T1	CDR, ETO, MTG8, ZMYND2	8q22	runt-related transcription factor 1; translocated to, 1 (cyclin D-related)	MLL	TRX1, HRX, ALL-1, HTRX1, CXXC7, MLL1A, KMT2A	11q23	myeloid/lymphoid or mixed-lineage leukemia (trithorax homolog, Drosophila)	AML
RUNX1T1	CDR, ETO, MTG8, ZMYND2	8q22	runt-related transcription factor 1; translocated to, 1 (cyclin D-related)	RUNX1	PEBP2A2, AMLCR1	21q22.3	runt-related transcription factor 1	AML
CBFA2T3	MTGR2, ZMYND4	16q24	core-binding factor, runt domain, alpha subunit 2; translocated to, 3	RUNX1	PEBP2A2, AMLCR1	21q22.3	runt-related transcription factor 1	AML
CBFB	PEBP2B	16q22.1	core-binding factor, beta subunit	MYH11	SMMHC, SMHC	16p13.11	myosin, heavy chain 11, smooth muscle	AML
CBL	RNF55	11q23.3-qter	Cas-Br-M (murine) ecotropic retroviral transforming sequence	MLL	TRX1, HRX, ALL-1, HTRX1, CXXC7, MLL1A, KMT2A	11q23	myeloid/lymphoid or mixed-lineage leukemia (trithorax homolog, Drosophila)	AML
CCND1	U21B31	11q13	cyclin D1	IGH@	IGH	14q32.32-q32.33	immunoglobulin heavy locus	CLL,B-ALL,breast
CCND1	U21B31	11q13	cyclin D1	FSTL3	FLRG, FSRP	19p13	follistatin-like 3 (secreted glycoprotein)	CLL,B-ALL,breast
CCND2		12p13	cyclin D2	IGL@	IGL	22q11.2	immunoglobulin lambda locus	NHL,CLL
CCND3		6p21	cyclin D3	IGH@	IGH	14q32.32-q32.33	immunoglobulin heavy locus	MM
CDH11	OB, CAD11	16q21	cadherin 11, type 2, OB-cadherin (osteoblast)	USP6	Tre-2, TRE17, Tre2	17p13	ubiquitin specific peptidase 6 (Tre-2 oncogene)	aneurysmalbonecysts
CDK6	PLSTIRE	7q21-q22	cyclin-dependent kinase 6	MLLT10	AF10	10p12	myeloid/lymphoid or mixed-lineage leukemia (trithorax homolog, Drosophila); translocated to, 10	ALL
CDX2		13q12.2	caudal type homeobox 2	ETV6	TEL	12p13	ets variant 6	AML
CDC42EP1	MSE55, CEP1, Borg5	22q13.1	CDC42 effector protein (Rho GTPase binding) 1	FGFR1	H2, H3, H4, H5, CEK, FLG, BFGFR, N-SAM, CD331	8p12	fibroblast growth factor receptor 1	MPD,NHL
CHIC2	BTL	4q11	cysteine-rich hydrophobic domain 2	ETV6	TEL	12p13	ets variant 6	AML
CHN1	RhoGAP2, ARHGAP2, n-chimerin	2q31-q32.1	chimerin (chimaerin) 1	TAF15	hTAFII68, RBP56, Npl3	17q11.1-q11.2	TAF15 RNA polymerase II, TATA box binding protein (TBP)-associated factor, 68kDa	extraskeletalmyxoidchondrosarcoma
CIC	KIAA0306	19q13.2	capicua homolog (Drosophila)	DUX4		4q35	double homeobox, 4	softtissuesarcoma
CLTC	Hc	17q11-qter	clathrin, heavy chain (Hc)	ALK	CD246	2p23	anaplastic lymphoma receptor tyrosine kinase	ALCL
CXCR7	RDC1, GPR159	2q37.3	chemokine (C-X-C motif) receptor 7	HMGA2	BABL, LIPO	12q15	high mobility group AT-hook 2	lipoma
COL1A1	OI4	17q21.33	collagen, type I, alpha 1	PDGFB	SSV	22q13.1	platelet-derived growth factor beta polypeptide (simian sarcoma viral (v-sis) oncogene homolog)	dermatofibrosarcomaprotuberans,aneurysmalbonecyst
COL1A1	OI4	17q21.33	collagen, type I, alpha 1	USP6	Tre-2, TRE17, Tre2	17p13	ubiquitin specific peptidase 6 (Tre-2 oncogene)	dermatofibrosarcomaprotuberans,aneurysmalbonecyst
COX6C		8q22-q23	cytochrome c oxidase subunit VIc	HMGA2	BABL, LIPO	12q15	high mobility group AT-hook 2	uterineleiomyoma
CREB1		2q34	cAMP responsive element binding protein 1	EWSR1	EWS	22q12.2	Ewing sarcoma breakpoint region 1	clearcellsarcoma,angiomatoidfibroushistiocytoma
CREB3L2	BBF2H7, TCAG_1951439	7q34	cAMP responsive element binding protein 3-like 2	FUS	TLS, FUS1, hnRNP-P2	16p11.2	fusion (involved in t(12;16) in malignant liposarcoma)	fibromyxoidsarcoma
CREBBP	RTS, CBP, KAT3A	16p13.3	CREB binding protein	MLL	TRX1, HRX, ALL-1, HTRX1, CXXC7, MLL1A, KMT2A	11q23	myeloid/lymphoid or mixed-lineage leukemia (trithorax homolog, Drosophila)	AL,AML
CREBBP	RTS, CBP, KAT3A	16p13.3	CREB binding protein	MYST4	querkopf, qkf, Morf, KAT6B, MOZ2	10q22.2	MYST histone acetyltransferase (monocytic leukemia) 4	AL,AML
CREBBP	RTS, CBP, KAT3A	16p13.3	CREB binding protein	MYST3	MOZ, KAT6A	8p11	MYST histone acetyltransferase (monocytic leukemia) 3	AL,AML
CTNNB1	beta-catenin	3p21	catenin (cadherin-associated protein), beta 1, 88kDa	PLAG1		8q12	pleiomorphic adenoma gene 1	colorectal,cvarian,hepatoblastoma,others,pleomorphicsalivaryadenoma
CCDC6	PTC, TPC, H4	10q21.2	coiled-coil domain containing 6	RET	PTC, CDHF12, RET51	10q11.2	ret proto-oncogene	papillarythyroid,CML
CCDC6	PTC, TPC, H4	10q21.2	coiled-coil domain containing 6	PDGFRB	JTK12, CD140b, PDGFR1	5q33.1	platelet-derived growth factor receptor, beta polypeptide	papillarythyroid,CML
DDIT3	CHOP10, GADD153, CHOP	12q13.1-q13.2	DNA-damage-inducible transcript 3	FUS	TLS, FUS1, hnRNP-P2	16p11.2	fusion (involved in t(12;16) in malignant liposarcoma)	liposarcoma
DDX10	HRH-J8	11q22-q23	DEAD (Asp-Glu-Ala-Asp) box polypeptide 10	NUP98	NUP96	11p15	nucleoporin 98kDa	AML*
DDX6	RCK	11q23.3	DEAD (Asp-Glu-Ala-Asp) box polypeptide 6	IGH@	IGH	14q32.32-q32.33	immunoglobulin heavy locus	B-NHL
DEK	D6S231E	6p23	DEK oncogene	NUP214	CAIN, CAN, D9S46E, N214	9q34	nucleoporin 214kDa	AML
DUX4		4q35	double homeobox, 4	CIC	KIAA0306	19q13.2	capicua homolog (Drosophila)	softtissuesarcoma
EIF4A2	DDX2B, EIF4A, BM-010	3q28	eukaryotic translation initiation factor 4A, isoform 2	BCL6	ZBTB27, LAZ3, BCL5, BCL6A	3q27	B-cell CLL/lymphoma 6	NHL
ELF4	MEF, ELFR	Xq26	E74-like factor 4 (ets domain transcription factor)	ERG	erg-3, p55	21q22.3	v-ets erythroblastosis virus E26 oncogene homolog (avian)	AML
ERC1	ELKS, KIAA1081, CAST2, MGC12974	12p13.3	ELKS/RAB6-interacting/CAST family member 1	RET	PTC, CDHF12, RET51	10q11.2	ret proto-oncogene	papillarythyroid
ELL	Men, ELL1	19p13.1	elongation factor RNA polymerase II	MLL	TRX1, HRX, ALL-1, HTRX1, CXXC7, MLL1A, KMT2A	11q23	myeloid/lymphoid or mixed-lineage leukemia (trithorax homolog, Drosophila)	AL
ELN	WBS, WS, SVAS	7q11.1-q21.1	elastin	PAX5	BSAP	9p13.2	paired box 5	B-ALL
EML4	ROPP120, ELP120	2p21	echinoderm microtubule associated protein like 4	ALK	CD246	2p23	anaplastic lymphoma receptor tyrosine kinase	NSCLC
EP300	p300, KAT3B	22q13.2	E1A binding protein p300	MLL	TRX1, HRX, ALL-1, HTRX1, CXXC7, MLL1A, KMT2A	11q23	myeloid/lymphoid or mixed-lineage leukemia (trithorax homolog, Drosophila)	colorectal,breast,pancreatic,AML
EP300	p300, KAT3B	22q13.2	E1A binding protein p300	MYST3	MOZ, KAT6A	8p11	MYST histone acetyltransferase (monocytic leukemia) 3	colorectal,breast,pancreatic,AML
EPS15	AF-1P, MLLT5	1p32	epidermal growth factor receptor pathway substrate 15	MLL	TRX1, HRX, ALL-1, HTRX1, CXXC7, MLL1A, KMT2A	11q23	myeloid/lymphoid or mixed-lineage leukemia (trithorax homolog, Drosophila)	ALL
ERG	erg-3, p55	21q22.3	v-ets erythroblastosis virus E26 oncogene homolog (avian)	EWSR1	EWS	22q12.2	Ewing sarcoma breakpoint region 1	Ewingsarcoma,prostate,AML
ERG	erg-3, p55	21q22.3	v-ets erythroblastosis virus E26 oncogene homolog (avian)	TMPRSS2	PRSS10	21q22.3	transmembrane protease, serine 2	Ewingsarcoma,prostate,AML
ERG	erg-3, p55	21q22.3	v-ets erythroblastosis virus E26 oncogene homolog (avian)	ELF4	MEF, ELFR	Xq26	E74-like factor 4 (ets domain transcription factor)	Ewingsarcoma,prostate,AML
ERG	erg-3, p55	21q22.3	v-ets erythroblastosis virus E26 oncogene homolog (avian)	FUS	TLS, FUS1, hnRNP-P2	16p11.2	fusion (involved in t(12;16) in malignant liposarcoma)	Ewingsarcoma,prostate,AML
ETV1	ER81	7p22	ets variant 1	EWSR1	EWS	22q12.2	Ewing sarcoma breakpoint region 1	Ewingsarcoma,prostate
ETV1	ER81	7p22	ets variant 1	TMPRSS2	PRSS10	21q22.3	transmembrane protease, serine 2	Ewingsarcoma,prostate
ETV1	ER81	7p22	ets variant 1	SLC45A3	IPCA-6, prostein, IPCA-2, IPCA-8	1q32.1	solute carrier family 45, member 3	Ewingsarcoma,prostate
ETV1	ER81	7p22	ets variant 1	C15ORF21	FLJ39426, D-PCa-2	15q15.1	chromosome 15 open reading frame 21	Ewingsarcoma,prostate
ETV1	ER81	7p22	ets variant 1	HNRNPA2B1		7p15	heterogeneous nuclear ribonucleoprotein A2/B1	Ewingsarcoma,prostate
ETV4	E1A-F, E1AF	17q21	ets variant 4	EWSR1	EWS	22q12.2	Ewing sarcoma breakpoint region 1	Ewingsarcoma,Prostatecarcinoma
ETV4	E1A-F, E1AF	17q21	ets variant 4	TMPRSS2	PRSS10	21q22.3	transmembrane protease, serine 2	Ewingsarcoma,Prostatecarcinoma
ETV5	ERM	3q28	ets variant 5	TMPRSS2	PRSS10	21q22.3	transmembrane protease, serine 2	Prostate
ETV6	TEL	12p13	ets variant 6	NTRK3	TRKC	15q24-q25	neurotrophic tyrosine kinase, receptor, type 3	congenitalfibrosarcoma,multipleleukemiaandlymphoma,secretorybreast,MDS,ALL
ETV6	TEL	12p13	ets variant 6	RUNX1	PEBP2A2, AMLCR1	21q22.3	runt-related transcription factor 1	congenitalfibrosarcoma,multipleleukemiaandlymphoma,secretorybreast,MDS,ALL
ETV6	TEL	12p13	ets variant 6	PDGFRB	JTK12, CD140b, PDGFR1	5q33.1	platelet-derived growth factor receptor, beta polypeptide	congenitalfibrosarcoma,multipleleukemiaandlymphoma,secretorybreast,MDS,ALL
ETV6	TEL	12p13	ets variant 6	ABL1	JTK7, c-ABL, p150	9q34.1	c-abl oncogene 1, receptor tyrosine kinase	congenitalfibrosarcoma,multipleleukemiaandlymphoma,secretorybreast,MDS,ALL
ETV6	TEL	12p13	ets variant 6	MN1	MGCR1-PEN	22q12.1	meningioma (disrupted in balanced translocation) 1	congenitalfibrosarcoma,multipleleukemiaandlymphoma,secretorybreast,MDS,ALL
ETV6	TEL	12p13	ets variant 6	ABL2	ARG	1q25.2	v-abl Abelson murine leukemia viral oncogene homolog 2 (arg, Abelson-related gene)	congenitalfibrosarcoma,multipleleukemiaandlymphoma,secretorybreast,MDS,ALL
ETV6	TEL	12p13	ets variant 6	ACSL6	KIAA0837, ACS2, LACS5, LACS2	5q31	acyl-CoA synthetase long-chain family member 6	congenitalfibrosarcoma,multipleleukemiaandlymphoma,secretorybreast,MDS,ALL
ETV6	TEL	12p13	ets variant 6	CHIC2	BTL	4q11	cysteine-rich hydrophobic domain 2	congenitalfibrosarcoma,multipleleukemiaandlymphoma,secretorybreast,MDS,ALL
ETV6	TEL	12p13	ets variant 6	ARNT	HIF-1beta, bHLHe2	1q21	aryl hydrocarbon receptor nuclear translocator	congenitalfibrosarcoma,multipleleukemiaandlymphoma,secretorybreast,MDS,ALL
ETV6	TEL	12p13	ets variant 6	JAK2	JTK10	9p24	Janus kinase 2 (a protein tyrosine kinase)	congenitalfibrosarcoma,multipleleukemiaandlymphoma,secretorybreast,MDS,ALL
ETV6	TEL	12p13	ets variant 6	MECOM	MDS1-EVI1, PRDM3	3q26	\N	congenitalfibrosarcoma,multipleleukemiaandlymphoma,secretorybreast,MDS,ALL
ETV6	TEL	12p13	ets variant 6	CDX2		13q12.2	caudal type homeobox 2	congenitalfibrosarcoma,multipleleukemiaandlymphoma,secretorybreast,MDS,ALL
ETV6	TEL	12p13	ets variant 6	MNX1	HB9, HOXHB9, SCRA1	7q36	motor neuron and pancreas homeobox 1	congenitalfibrosarcoma,multipleleukemiaandlymphoma,secretorybreast,MDS,ALL
ETV6	TEL	12p13	ets variant 6	MDS2		1p36	myelodysplastic syndrome 2 translocation associated	congenitalfibrosarcoma,multipleleukemiaandlymphoma,secretorybreast,MDS,ALL
ETV6	TEL	12p13	ets variant 6	PGAP3	MGC9753, CAB2, PP1498, PER1	17q21.2	\N	congenitalfibrosarcoma,multipleleukemiaandlymphoma,secretorybreast,MDS,ALL
ETV6	TEL	12p13	ets variant 6	SYK		9q22	spleen tyrosine kinase	congenitalfibrosarcoma,multipleleukemiaandlymphoma,secretorybreast,MDS,ALL
ETV6	TEL	12p13	ets variant 6	TTL	MGC46235	2q13	tubulin tyrosine ligase	congenitalfibrosarcoma,multipleleukemiaandlymphoma,secretorybreast,MDS,ALL
ETV6	TEL	12p13	ets variant 6	FGFR3	CEK2, JTK4, CD333	4p16.3	fibroblast growth factor receptor 3	congenitalfibrosarcoma,multipleleukemiaandlymphoma,secretorybreast,MDS,ALL
ETV6	TEL	12p13	ets variant 6	PAX5	BSAP	9p13.2	paired box 5	congenitalfibrosarcoma,multipleleukemiaandlymphoma,secretorybreast,MDS,ALL
MECOM	MDS1-EVI1, PRDM3	3q26	\N	RUNX1	PEBP2A2, AMLCR1	21q22.3	runt-related transcription factor 1	AML,CML
MECOM	MDS1-EVI1, PRDM3	3q26	\N	ETV6	TEL	12p13	ets variant 6	AML,CML
MECOM	MDS1-EVI1, PRDM3	3q26	\N	PRDM16	MEL1, PFM13, KIAA1675, MGC166915	1p36.23-p33	PR domain containing 16	AML,CML
MECOM	MDS1-EVI1, PRDM3	3q26	\N	PSMD2	S2, P97, TRAP2, MGC14274, Rpn1	3q27.3	proteasome (prosome, macropain) 26S subunit, non-ATPase, 2	AML,CML
EWSR1	EWS	22q12.2	Ewing sarcoma breakpoint region 1	FLII	FLI, FLIL, Fli1, MGC39265	17p11.2	flightless I homolog (Drosophila)	Ewingsarcoma,desmoplasticsmallroundcelltumor,ALL,clearcellsarcoma,sarcoma,myoepithelioma
EWSR1	EWS	22q12.2	Ewing sarcoma breakpoint region 1	ERG	erg-3, p55	21q22.3	v-ets erythroblastosis virus E26 oncogene homolog (avian)	Ewingsarcoma,desmoplasticsmallroundcelltumor,ALL,clearcellsarcoma,sarcoma,myoepithelioma
EWSR1	EWS	22q12.2	Ewing sarcoma breakpoint region 1	PATZ1	MAZR, dJ400N23, ZBTB19, ZSG, RIAZ, PATZ	22q12.2	POZ (BTB) and AT hook containing zinc finger 1	Ewingsarcoma,desmoplasticsmallroundcelltumor,ALL,clearcellsarcoma,sarcoma,myoepithelioma
EWSR1	EWS	22q12.2	Ewing sarcoma breakpoint region 1	NR4A3	CSMF, CHN, NOR1, MINOR	9q22	nuclear receptor subfamily 4, group A, member 3	Ewingsarcoma,desmoplasticsmallroundcelltumor,ALL,clearcellsarcoma,sarcoma,myoepithelioma
EWSR1	EWS	22q12.2	Ewing sarcoma breakpoint region 1	FEV	Pet-1	2q36	FEV (ETS oncogene family)	Ewingsarcoma,desmoplasticsmallroundcelltumor,ALL,clearcellsarcoma,sarcoma,myoepithelioma
EWSR1	EWS	22q12.2	Ewing sarcoma breakpoint region 1	GDNF	ATF1, ATF2, HFB1-GDNF	5p13.1-p12	glial cell derived neurotrophic factor	Ewingsarcoma,desmoplasticsmallroundcelltumor,ALL,clearcellsarcoma,sarcoma,myoepithelioma
EWSR1	EWS	22q12.2	Ewing sarcoma breakpoint region 1	ETV1	ER81	7p22	ets variant 1	Ewingsarcoma,desmoplasticsmallroundcelltumor,ALL,clearcellsarcoma,sarcoma,myoepithelioma
EWSR1	EWS	22q12.2	Ewing sarcoma breakpoint region 1	ETV4	E1A-F, E1AF	17q21	ets variant 4	Ewingsarcoma,desmoplasticsmallroundcelltumor,ALL,clearcellsarcoma,sarcoma,myoepithelioma
EWSR1	EWS	22q12.2	Ewing sarcoma breakpoint region 1	WT1	WAGR, WIT-2	11p13	Wilms tumor 1	Ewingsarcoma,desmoplasticsmallroundcelltumor,ALL,clearcellsarcoma,sarcoma,myoepithelioma
EWSR1	EWS	22q12.2	Ewing sarcoma breakpoint region 1	ZNF384	CAGH1A, CIZ, NMP4, NP	12p12	zinc finger protein 384	Ewingsarcoma,desmoplasticsmallroundcelltumor,ALL,clearcellsarcoma,sarcoma,myoepithelioma
EWSR1	EWS	22q12.2	Ewing sarcoma breakpoint region 1	CREB1		2q34	cAMP responsive element binding protein 1	Ewingsarcoma,desmoplasticsmallroundcelltumor,ALL,clearcellsarcoma,sarcoma,myoepithelioma
EWSR1	EWS	22q12.2	Ewing sarcoma breakpoint region 1	POU5F1	OCT3, Oct4, MGC22487	6p21.33	POU class 5 homeobox 1	Ewingsarcoma,desmoplasticsmallroundcelltumor,ALL,clearcellsarcoma,sarcoma,myoepithelioma
EWSR1	EWS	22q12.2	Ewing sarcoma breakpoint region 1	PBX1		1q23.3	pre-B-cell leukemia homeobox 1	Ewingsarcoma,desmoplasticsmallroundcelltumor,ALL,clearcellsarcoma,sarcoma,myoepithelioma
ACSL6	KIAA0837, ACS2, LACS5, LACS2	5q31	acyl-CoA synthetase long-chain family member 6	ETV6	TEL	12p13	ets variant 6	AML,AEL
FEV	Pet-1	2q36	FEV (ETS oncogene family)	EWSR1	EWS	22q12.2	Ewing sarcoma breakpoint region 1	Ewingsarcoma
FEV	Pet-1	2q36	FEV (ETS oncogene family)	FUS	TLS, FUS1, hnRNP-P2	16p11.2	fusion (involved in t(12;16) in malignant liposarcoma)	Ewingsarcoma
FGFR1	H2, H3, H4, H5, CEK, FLG, BFGFR, N-SAM, CD331	8p12	fibroblast growth factor receptor 1	BCR	D22S662, CML, PHL, ALL	22q11	breakpoint cluster region	MPD,NHL
FGFR1	H2, H3, H4, H5, CEK, FLG, BFGFR, N-SAM, CD331	8p12	fibroblast growth factor receptor 1	FGFR1OP	FOP	6q27	FGFR1 oncogene partner	MPD,NHL
FGFR1	H2, H3, H4, H5, CEK, FLG, BFGFR, N-SAM, CD331	8p12	fibroblast growth factor receptor 1	ZMYM2	RAMP, FIM, MYM	13q11-q12	zinc finger, MYM-type 2	MPD,NHL
FGFR1	H2, H3, H4, H5, CEK, FLG, BFGFR, N-SAM, CD331	8p12	fibroblast growth factor receptor 1	CDC42EP1	MSE55, CEP1, Borg5	22q13.1	CDC42 effector protein (Rho GTPase binding) 1	MPD,NHL
FGFR1OP	FOP	6q27	FGFR1 oncogene partner	FGFR1	H2, H3, H4, H5, CEK, FLG, BFGFR, N-SAM, CD331	8p12	fibroblast growth factor receptor 1	MPD,NHL
FGFR3	CEK2, JTK4, CD333	4p16.3	fibroblast growth factor receptor 3	IGH@	IGH	14q32.32-q32.33	immunoglobulin heavy locus	bladder,MM,T-celllymphoma
FGFR3	CEK2, JTK4, CD333	4p16.3	fibroblast growth factor receptor 3	ETV6	TEL	12p13	ets variant 6	bladder,MM,T-celllymphoma
FIP1L1	DKFZp586K0717	4q11-q12	FIP1 like 1 (S. cerevisiae)	PDGFRA	CD140a, PDGFR2	4q12	platelet-derived growth factor receptor, alpha polypeptide	idiopathichypereosinophilicsyndrome
FLII	FLI, FLIL, Fli1, MGC39265	17p11.2	flightless I homolog (Drosophila)	EWSR1	EWS	22q12.2	Ewing sarcoma breakpoint region 1	Ewingsarcoma
FNBP1	FBP17, KIAA0554	9q34	formin binding protein 1	MLL	TRX1, HRX, ALL-1, HTRX1, CXXC7, MLL1A, KMT2A	11q23	myeloid/lymphoid or mixed-lineage leukemia (trithorax homolog, Drosophila)	AML
FOXO1	FKH1	13q14.1	forkhead box O1	PAX3	HUP2	2q36.1	paired box 3	alveolarrhabdomyosarcomas
FOXO3	AF6q21, FOXO2	6q21	forkhead box O3	MLL	TRX1, HRX, ALL-1, HTRX1, CXXC7, MLL1A, KMT2A	11q23	myeloid/lymphoid or mixed-lineage leukemia (trithorax homolog, Drosophila)	AL
FOXP1	QRF1, 12CC4, HSPC215, hFKH1B	3p14.1	forkhead box P1	PAX5	BSAP	9p13.2	paired box 5	ALL
FSTL3	FLRG, FSRP	19p13	follistatin-like 3 (secreted glycoprotein)	CCND1	U21B31	11q13	cyclin D1	B-CLL
FUS	TLS, FUS1, hnRNP-P2	16p11.2	fusion (involved in t(12;16) in malignant liposarcoma)	DDIT3	CHOP10, GADD153, CHOP	12q13.1-q13.2	DNA-damage-inducible transcript 3	liposarcoma,AML,Ewingsarcoma,angiomatoidfibroushistiocytoma,fibromyxoidsarcoma
FUS	TLS, FUS1, hnRNP-P2	16p11.2	fusion (involved in t(12;16) in malignant liposarcoma)	ERG	erg-3, p55	21q22.3	v-ets erythroblastosis virus E26 oncogene homolog (avian)	liposarcoma,AML,Ewingsarcoma,angiomatoidfibroushistiocytoma,fibromyxoidsarcoma
FUS	TLS, FUS1, hnRNP-P2	16p11.2	fusion (involved in t(12;16) in malignant liposarcoma)	FEV	Pet-1	2q36	FEV (ETS oncogene family)	liposarcoma,AML,Ewingsarcoma,angiomatoidfibroushistiocytoma,fibromyxoidsarcoma
FUS	TLS, FUS1, hnRNP-P2	16p11.2	fusion (involved in t(12;16) in malignant liposarcoma)	GDNF	ATF1, ATF2, HFB1-GDNF	5p13.1-p12	glial cell derived neurotrophic factor	liposarcoma,AML,Ewingsarcoma,angiomatoidfibroushistiocytoma,fibromyxoidsarcoma
FUS	TLS, FUS1, hnRNP-P2	16p11.2	fusion (involved in t(12;16) in malignant liposarcoma)	CREB3L2	BBF2H7, TCAG_1951439	7q34	cAMP responsive element binding protein 3-like 2	liposarcoma,AML,Ewingsarcoma,angiomatoidfibroushistiocytoma,fibromyxoidsarcoma
KDSR	DHSR, SDR35C1	18q21	3-ketodihydrosphingosine reductase	IGK@	IGK	2p11.2	immunoglobulin kappa locus	B-NHL
GAS7	KIAA0394, MGC1348	17p13.1	growth arrest-specific 7	MLL	TRX1, HRX, ALL-1, HTRX1, CXXC7, MLL1A, KMT2A	11q23	myeloid/lymphoid or mixed-lineage leukemia (trithorax homolog, Drosophila)	AML*
GMPS		3q24	guanine monphosphate synthetase	MLL	TRX1, HRX, ALL-1, HTRX1, CXXC7, MLL1A, KMT2A	11q23	myeloid/lymphoid or mixed-lineage leukemia (trithorax homolog, Drosophila)	AML
GOLGA5	ret-II, golgin-84, rfg5, GOLIM5	14q	golgi autoantigen, golgin subfamily a, 5	RET	PTC, CDHF12, RET51	10q11.2	ret proto-oncogene	papillarythyroid
GPHN	KIAA1385	14q23.3	gephyrin	MLL	TRX1, HRX, ALL-1, HTRX1, CXXC7, MLL1A, KMT2A	11q23	myeloid/lymphoid or mixed-lineage leukemia (trithorax homolog, Drosophila)	AL
ARHGAP26	GRAF, KIAA0621, OPHN1L, OPHN1L1	5q31	Rho GTPase activating protein 26	MLL	TRX1, HRX, ALL-1, HTRX1, CXXC7, MLL1A, KMT2A	11q23	myeloid/lymphoid or mixed-lineage leukemia (trithorax homolog, Drosophila)	AML,MDS
CYTSB	HCMOGT-1, FLJ36955, NSP	17p11.2	\N	PDGFRB	JTK12, CD140b, PDGFR1	5q33.1	platelet-derived growth factor receptor, beta polypeptide	JMML
CLP1	HEAB, hClp1	11q12	CLP1, cleavage and polyadenylation factor I subunit, homolog (S. cerevisiae)	MLL	TRX1, HRX, ALL-1, HTRX1, CXXC7, MLL1A, KMT2A	11q23	myeloid/lymphoid or mixed-lineage leukemia (trithorax homolog, Drosophila)	AML
CCNB1IP1	HEI10	14q11.2	cyclin B1 interacting protein 1	HMGA2	BABL, LIPO	12q15	high mobility group AT-hook 2	uterineleiomyoma
HIP1	ILWEQ	7q11.23	huntingtin interacting protein 1	PDGFRB	JTK12, CD140b, PDGFR1	5q33.1	platelet-derived growth factor receptor, beta polypeptide	CMML
HIST1H4I	H4/m	6p22.1	histone cluster 1, H4i	BCL6	ZBTB27, LAZ3, BCL5, BCL6A	3q27	B-cell CLL/lymphoma 6	NHL
EPAS1	MOP2, PASD2, HIF2A, HLF, bHLHe73	2p21-p16	endothelial PAS domain protein 1	TCF7L1		2p11.2	transcription factor 7-like 1 (T-cell specific, HMG-box)	ALL
MNX1	HB9, HOXHB9, SCRA1	7q36	motor neuron and pancreas homeobox 1	ETV6	TEL	12p13	ets variant 6	AML
HMGA2	BABL, LIPO	12q15	high mobility group AT-hook 2	LHFP	MGC22429	13q12	lipoma HMGIC fusion partner	lipoma
HMGA2	BABL, LIPO	12q15	high mobility group AT-hook 2	RAD51L1	REC2, hREC2, R51H2	14q23-q24.2	RAD51-like 1 (S. cerevisiae)	lipoma
HMGA2	BABL, LIPO	12q15	high mobility group AT-hook 2	LPP		3q27-q28	LIM domain containing preferred translocation partner in lipoma	lipoma
HMGA2	BABL, LIPO	12q15	high mobility group AT-hook 2	CCNB1IP1	HEI10	14q11.2	cyclin B1 interacting protein 1	lipoma
HMGA2	BABL, LIPO	12q15	high mobility group AT-hook 2	COX6C		8q22-q23	cytochrome c oxidase subunit VIc	lipoma
HMGA2	BABL, LIPO	12q15	high mobility group AT-hook 2	CXCR7	RDC1, GPR159	2q37.3	chemokine (C-X-C motif) receptor 7	lipoma
HNRNPA2B1		7p15	heterogeneous nuclear ribonucleoprotein A2/B1	ETV1	ER81	7p22	ets variant 1	prostate
HOXA11		7p15.2	homeobox A11	NUP98	NUP96	11p15	nucleoporin 98kDa	CML
HOXA13		7p15.2	homeobox A13	NUP98	NUP96	11p15	nucleoporin 98kDa	AML
HOXA9		7p15.2	homeobox A9	NUP98	NUP96	11p15	nucleoporin 98kDa	AML*
HOXA9		7p15.2	homeobox A9	MSI2		17q23.2	musashi homolog 2 (Drosophila)	AML*
HOXC11		12q13.13	homeobox C11	NUP98	NUP96	11p15	nucleoporin 98kDa	AML
HOXC13		12q13.13	homeobox C13	NUP98	NUP96	11p15	nucleoporin 98kDa	AML
HOXD11		2q31.1	homeobox D11	NUP98	NUP96	11p15	nucleoporin 98kDa	AML
HOXD13		2q31.1	homeobox D13	NUP98	NUP96	11p15	nucleoporin 98kDa	AML*
HSP90AA1	Hsp89, Hsp90, FLJ31884, HSP90N	14q32.33	heat shock protein 90kDa alpha (cytosolic), class A member 1	BCL6	ZBTB27, LAZ3, BCL5, BCL6A	3q27	B-cell CLL/lymphoma 6	NHL
HSP90AB1		6p12	heat shock protein 90kDa alpha (cytosolic), class B member 1	BCL6	ZBTB27, LAZ3, BCL5, BCL6A	3q27	B-cell CLL/lymphoma 6	NHL
IGH@	IGH	14q32.32-q32.33	immunoglobulin heavy locus	MYC	c-Myc, bHLHe39	8q24	v-myc myelocytomatosis viral oncogene homolog (avian)	MM,Burkittlymphoma,NHL,CLL,B-ALL,MALT,MLCLS
IGH@	IGH	14q32.32-q32.33	immunoglobulin heavy locus	FGFR3	CEK2, JTK4, CD333	4p16.3	fibroblast growth factor receptor 3	MM,Burkittlymphoma,NHL,CLL,B-ALL,MALT,MLCLS
IGH@	IGH	14q32.32-q32.33	immunoglobulin heavy locus	PAX5	BSAP	9p13.2	paired box 5	MM,Burkittlymphoma,NHL,CLL,B-ALL,MALT,MLCLS
IGH@	IGH	14q32.32-q32.33	immunoglobulin heavy locus	FCRL4	FCRH4, IRTA1, IGFP2	1q21	Fc receptor-like 4	MM,Burkittlymphoma,NHL,CLL,B-ALL,MALT,MLCLS
IGH@	IGH	14q32.32-q32.33	immunoglobulin heavy locus	IRF4	LSIRF	6p25-p23	interferon regulatory factor 4	MM,Burkittlymphoma,NHL,CLL,B-ALL,MALT,MLCLS
IGH@	IGH	14q32.32-q32.33	immunoglobulin heavy locus	CCND1	U21B31	11q13	cyclin D1	MM,Burkittlymphoma,NHL,CLL,B-ALL,MALT,MLCLS
IGH@	IGH	14q32.32-q32.33	immunoglobulin heavy locus	BCL9		1q21	B-cell CLL/lymphoma 9	MM,Burkittlymphoma,NHL,CLL,B-ALL,MALT,MLCLS
IGH@	IGH	14q32.32-q32.33	immunoglobulin heavy locus	BCL8	BCL8A	15q11-q13	B-cell CLL/lymphoma 8	MM,Burkittlymphoma,NHL,CLL,B-ALL,MALT,MLCLS
IGH@	IGH	14q32.32-q32.33	immunoglobulin heavy locus	BCL6	ZBTB27, LAZ3, BCL5, BCL6A	3q27	B-cell CLL/lymphoma 6	MM,Burkittlymphoma,NHL,CLL,B-ALL,MALT,MLCLS
IGH@	IGH	14q32.32-q32.33	immunoglobulin heavy locus	BCL2	Bcl-2	18q21.3	B-cell CLL/lymphoma 2	MM,Burkittlymphoma,NHL,CLL,B-ALL,MALT,MLCLS
IGH@	IGH	14q32.32-q32.33	immunoglobulin heavy locus	BCL3		19q13.1-q13.2	B-cell CLL/lymphoma 3	MM,Burkittlymphoma,NHL,CLL,B-ALL,MALT,MLCLS
IGH@	IGH	14q32.32-q32.33	immunoglobulin heavy locus	BCL10	CARMEN, CIPER, mE10, c-E10, CLAP	1p22	B-cell CLL/lymphoma 10	MM,Burkittlymphoma,NHL,CLL,B-ALL,MALT,MLCLS
IGH@	IGH	14q32.32-q32.33	immunoglobulin heavy locus	BCL11A	BCL11A-XL, BCL11A-L, BCL11A-S, CTIP1, HBFQTL5, ZNF856	2p16.1	B-cell CLL/lymphoma 11A (zinc finger protein)	MM,Burkittlymphoma,NHL,CLL,B-ALL,MALT,MLCLS
IGH@	IGH	14q32.32-q32.33	immunoglobulin heavy locus	LHX4	Gsh4	1q25.3	LIM homeobox 4	MM,Burkittlymphoma,NHL,CLL,B-ALL,MALT,MLCLS
IGH@	IGH	14q32.32-q32.33	immunoglobulin heavy locus	DDX6	RCK	11q23.3	DEAD (Asp-Glu-Ala-Asp) box polypeptide 6	MM,Burkittlymphoma,NHL,CLL,B-ALL,MALT,MLCLS
IGH@	IGH	14q32.32-q32.33	immunoglobulin heavy locus	NFKB2	LYT-10, p52	10q24	nuclear factor of kappa light polypeptide gene enhancer in B-cells 2 (p49/p100)	MM,Burkittlymphoma,NHL,CLL,B-ALL,MALT,MLCLS
IGH@	IGH	14q32.32-q32.33	immunoglobulin heavy locus	PAFAH1B2		11q23	platelet-activating factor acetylhydrolase, isoform Ib, beta subunit 30kDa	MM,Burkittlymphoma,NHL,CLL,B-ALL,MALT,MLCLS
IGH@	IGH	14q32.32-q32.33	immunoglobulin heavy locus	PCSK7	PC7, PC8, LPC, SPC7	11q23-q24	proprotein convertase subtilisin/kexin type 7	MM,Burkittlymphoma,NHL,CLL,B-ALL,MALT,MLCLS
IGK@	IGK	2p11.2	immunoglobulin kappa locus	MYC	c-Myc, bHLHe39	8q24	v-myc myelocytomatosis viral oncogene homolog (avian)	Burkittlymphoma,B-NHL
IGK@	IGK	2p11.2	immunoglobulin kappa locus	KDSR	DHSR, SDR35C1	18q21	3-ketodihydrosphingosine reductase	Burkittlymphoma,B-NHL
IGL@	IGL	22q11.2	immunoglobulin lambda locus	BCL9		1q21	B-cell CLL/lymphoma 9	Burkittlymphoma
IGL@	IGL	22q11.2	immunoglobulin lambda locus	MYC	c-Myc, bHLHe39	8q24	v-myc myelocytomatosis viral oncogene homolog (avian)	Burkittlymphoma
IGL@	IGL	22q11.2	immunoglobulin lambda locus	CCND2		12p13	cyclin D2	Burkittlymphoma
IL2	IL-2	4q26-q27	interleukin 2	TNFRSF17	BCM, CD269	16p13.1	tumor necrosis factor receptor superfamily, member 17	intestinalT-celllymphoma
IL21R		16p11	interleukin 21 receptor	BCL6	ZBTB27, LAZ3, BCL5, BCL6A	3q27	B-cell CLL/lymphoma 6	NHL
IRF4	LSIRF	6p25-p23	interferon regulatory factor 4	IGH@	IGH	14q32.32-q32.33	immunoglobulin heavy locus	MM
FCRL4	FCRH4, IRTA1, IGFP2	1q21	Fc receptor-like 4	IGH@	IGH	14q32.32-q32.33	immunoglobulin heavy locus	B-NHL
ITK	EMT, PSCTK2, LYK	5q31-q32	IL2-inducible T-cell kinase	SYK		9q22	spleen tyrosine kinase	peripheralT-celllymphoma
JAK2	JTK10	9p24	Janus kinase 2 (a protein tyrosine kinase)	ETV6	TEL	12p13	ets variant 6	ALL,AML,MPD,CML
JAK2	JTK10	9p24	Janus kinase 2 (a protein tyrosine kinase)	MBD1	PCM1, CXXC3	18q21	methyl-CpG binding domain protein 1	ALL,AML,MPD,CML
JAK2	JTK10	9p24	Janus kinase 2 (a protein tyrosine kinase)	BCR	D22S662, CML, PHL, ALL	22q11	breakpoint cluster region	ALL,AML,MPD,CML
JAZF1	TIP27, DKFZp761K2222, ZNF802	7p15.2-p15.1	JAZF zinc finger 1	SUZ12	JJAZ1, KIAA0160, CHET9	17q21	suppressor of zeste 12 homolog (Drosophila)	endometrialstromaltumours
KTN1	KIAA0004, CG1	14q22.1	kinectin 1 (kinesin receptor)	RET	PTC, CDHF12, RET51	10q11.2	ret proto-oncogene	papillarythryoid
AFF3	MLLT2-like	2q11.2-q12	AF4/FMR2 family, member 3	MLL	TRX1, HRX, ALL-1, HTRX1, CXXC7, MLL1A, KMT2A	11q23	myeloid/lymphoid or mixed-lineage leukemia (trithorax homolog, Drosophila)	ALL,T-ALL
AFF3	MLLT2-like	2q11.2-q12	AF4/FMR2 family, member 3	RUNX1	PEBP2A2, AMLCR1	21q22.3	runt-related transcription factor 1	ALL,T-ALL
LASP1	MLN50, Lasp-1	17q11-q21.3	LIM and SH3 protein 1	MLL	TRX1, HRX, ALL-1, HTRX1, CXXC7, MLL1A, KMT2A	11q23	myeloid/lymphoid or mixed-lineage leukemia (trithorax homolog, Drosophila)	AML
LCK		1p34.3	lymphocyte-specific protein tyrosine kinase	TRB@	TRB	7q34	T cell receptor beta locus	T-ALL
TOX4	LCP1	14q11.2	TOX high mobility group box family member 4	BCL6	ZBTB27, LAZ3, BCL5, BCL6A	3q27	B-cell CLL/lymphoma 6	NHL
TET1	LCX, KIAA1676, bA119F7.1	10q21	tet oncogene 1	MLL	TRX1, HRX, ALL-1, HTRX1, CXXC7, MLL1A, KMT2A	11q23	myeloid/lymphoid or mixed-lineage leukemia (trithorax homolog, Drosophila)	AML
LHFP	MGC22429	13q12	lipoma HMGIC fusion partner	HMGA2	BABL, LIPO	12q15	high mobility group AT-hook 2	lipoma
LIFR	CD118	5p13-p12	leukemia inhibitory factor receptor alpha	PLAG1		8q12	pleiomorphic adenoma gene 1	salivaryadenoma
LMO1	TTG1, RHOM1	11p15	LIM domain only 1 (rhombotin 1)	TRD@	TRD, TCRDV1	14q11.2	T cell receptor delta locus	T-ALL
LMO2	TTG2, RHOM2, RBTN2	11p13	LIM domain only 2 (rhombotin-like 1)	TRD@	TRD, TCRDV1	14q11.2	T cell receptor delta locus	T-ALL
LPP		3q27-q28	LIM domain containing preferred translocation partner in lipoma	HMGA2	BABL, LIPO	12q15	high mobility group AT-hook 2	lipoma,leukemia
LPP		3q27-q28	LIM domain containing preferred translocation partner in lipoma	MLL	TRX1, HRX, ALL-1, HTRX1, CXXC7, MLL1A, KMT2A	11q23	myeloid/lymphoid or mixed-lineage leukemia (trithorax homolog, Drosophila)	lipoma,leukemia
LPP		3q27-q28	LIM domain containing preferred translocation partner in lipoma	C12ORF9	LPP-LRFT	12	chromosome 12 open reading frame 9	lipoma,leukemia
LYL1	bHLHa18	19p13.2	lymphoblastic leukemia derived sequence 1	TRB@	TRB	7q34	T cell receptor beta locus	T-ALL
MAF	c-MAF	16q22-q23	v-maf musculoaponeurotic fibrosarcoma oncogene homolog (avian)	IGH@	IGH	14q32.32-q32.33	immunoglobulin heavy locus	MM
MAFB		20q11.1-q13.1	v-maf musculoaponeurotic fibrosarcoma oncogene homolog B (avian)	IGH@	IGH	14q32.32-q32.33	immunoglobulin heavy locus	MM
MALT1		18q21	mucosa associated lymphoid tissue lymphoma translocation gene 1	BIRC3	cIAP2, hiap-1, MIHC, RNF49, MALT2, c-IAP2	11q22	baculoviral IAP repeat-containing 3	MALT
MAML2	KIAA1819, MAM3	11q	mastermind-like 2 (Drosophila)	CRTC1	KIAA0616, FLJ14027, TORC1	19p13	CREB regulated transcription coactivator 1	salivaryglandmucoepidermoid
MECOM	MDS1-EVI1, PRDM3	3q26	\N	RUNX1	PEBP2A2, AMLCR1	21q22.3	runt-related transcription factor 1	MDS,AML
MDS2		1p36	myelodysplastic syndrome 2 translocation associated	ETV6	TEL	12p13	ets variant 6	MDS
CRTC1	KIAA0616, FLJ14027, TORC1	19p13	CREB regulated transcription coactivator 1	MAML2	KIAA1819, MAM3	11q	mastermind-like 2 (Drosophila)	salivaryglandmucoepidermoid
CIITA	C2TA, NLRA	16p13	class II, major histocompatibility complex, transactivator	BCL6	ZBTB27, LAZ3, BCL5, BCL6A	3q27	B-cell CLL/lymphoma 6	NHL
MKL1	KIAA1438, MAL, MRTF-A, BSAC	22q13	megakaryoblastic leukemia (translocation) 1	RBM15	OTT, OTT1	1p13	RNA binding motif protein 15	acutemegakaryocyticleukemia
MLF1		3q25	myeloid leukemia factor 1	NPM1	B23, NPM	5q35	nucleophosmin (nucleolar phosphoprotein B23, numatrin)	AML
MLL	TRX1, HRX, ALL-1, HTRX1, CXXC7, MLL1A, KMT2A	11q23	myeloid/lymphoid or mixed-lineage leukemia (trithorax homolog, Drosophila)	MLL	TRX1, HRX, ALL-1, HTRX1, CXXC7, MLL1A, KMT2A	11q23	myeloid/lymphoid or mixed-lineage leukemia (trithorax homolog, Drosophila)	AML,ALL
MLL	TRX1, HRX, ALL-1, HTRX1, CXXC7, MLL1A, KMT2A	11q23	myeloid/lymphoid or mixed-lineage leukemia (trithorax homolog, Drosophila)	MLLT1	ENL, LTG19, YEATS1	19p13.3	myeloid/lymphoid or mixed-lineage leukemia (trithorax homolog, Drosophila); translocated to, 1	AML,ALL
MLL	TRX1, HRX, ALL-1, HTRX1, CXXC7, MLL1A, KMT2A	11q23	myeloid/lymphoid or mixed-lineage leukemia (trithorax homolog, Drosophila)	AFF1	AF-4, AF4	4q21.3	AF4/FMR2 family, member 1	AML,ALL
MLL	TRX1, HRX, ALL-1, HTRX1, CXXC7, MLL1A, KMT2A	11q23	myeloid/lymphoid or mixed-lineage leukemia (trithorax homolog, Drosophila)	MLLT3	AF-9, AF9, YEATS3	9p22	myeloid/lymphoid or mixed-lineage leukemia (trithorax homolog, Drosophila); translocated to, 3	AML,ALL
MLL	TRX1, HRX, ALL-1, HTRX1, CXXC7, MLL1A, KMT2A	11q23	myeloid/lymphoid or mixed-lineage leukemia (trithorax homolog, Drosophila)	MLLT4	AF-6, AF6	6q27	myeloid/lymphoid or mixed-lineage leukemia (trithorax homolog, Drosophila); translocated to, 4	AML,ALL
MLL	TRX1, HRX, ALL-1, HTRX1, CXXC7, MLL1A, KMT2A	11q23	myeloid/lymphoid or mixed-lineage leukemia (trithorax homolog, Drosophila)	FOXO4	AFX1	Xq13.1	forkhead box O4	AML,ALL
MLL	TRX1, HRX, ALL-1, HTRX1, CXXC7, MLL1A, KMT2A	11q23	myeloid/lymphoid or mixed-lineage leukemia (trithorax homolog, Drosophila)	MLLT10	AF10	10p12	myeloid/lymphoid or mixed-lineage leukemia (trithorax homolog, Drosophila); translocated to, 10	AML,ALL
MLL	TRX1, HRX, ALL-1, HTRX1, CXXC7, MLL1A, KMT2A	11q23	myeloid/lymphoid or mixed-lineage leukemia (trithorax homolog, Drosophila)	MLLT6	AF17, FLJ23480	17q21	myeloid/lymphoid or mixed-lineage leukemia (trithorax homolog, Drosophila); translocated to, 6	AML,ALL
MLL	TRX1, HRX, ALL-1, HTRX1, CXXC7, MLL1A, KMT2A	11q23	myeloid/lymphoid or mixed-lineage leukemia (trithorax homolog, Drosophila)	ELL	Men, ELL1	19p13.1	elongation factor RNA polymerase II	AML,ALL
MLL	TRX1, HRX, ALL-1, HTRX1, CXXC7, MLL1A, KMT2A	11q23	myeloid/lymphoid or mixed-lineage leukemia (trithorax homolog, Drosophila)	EPS15	AF-1P, MLLT5	1p32	epidermal growth factor receptor pathway substrate 15	AML,ALL
MLL	TRX1, HRX, ALL-1, HTRX1, CXXC7, MLL1A, KMT2A	11q23	myeloid/lymphoid or mixed-lineage leukemia (trithorax homolog, Drosophila)	MLLT11	AF1Q	1q21	myeloid/lymphoid or mixed-lineage leukemia (trithorax homolog, Drosophila); translocated to, 11	AML,ALL
MLL	TRX1, HRX, ALL-1, HTRX1, CXXC7, MLL1A, KMT2A	11q23	myeloid/lymphoid or mixed-lineage leukemia (trithorax homolog, Drosophila)	CREBBP	RTS, CBP, KAT3A	16p13.3	CREB binding protein	AML,ALL
MLL	TRX1, HRX, ALL-1, HTRX1, CXXC7, MLL1A, KMT2A	11q23	myeloid/lymphoid or mixed-lineage leukemia (trithorax homolog, Drosophila)	SH3GL1	SH3P8, SH3D2B, CNSA1, EEN, MGC111371	19p13.3	SH3-domain GRB2-like 1	AML,ALL
MLL	TRX1, HRX, ALL-1, HTRX1, CXXC7, MLL1A, KMT2A	11q23	myeloid/lymphoid or mixed-lineage leukemia (trithorax homolog, Drosophila)	FNBP1	FBP17, KIAA0554	9q34	formin binding protein 1	AML,ALL
MLL	TRX1, HRX, ALL-1, HTRX1, CXXC7, MLL1A, KMT2A	11q23	myeloid/lymphoid or mixed-lineage leukemia (trithorax homolog, Drosophila)	SEPT5	HCDCREL-1, H5	22q11.2	septin 5	AML,ALL
MLL	TRX1, HRX, ALL-1, HTRX1, CXXC7, MLL1A, KMT2A	11q23	myeloid/lymphoid or mixed-lineage leukemia (trithorax homolog, Drosophila)	FN1	MSF, CIG, LETS, GFND2, FINC	2q34	fibronectin 1	AML,ALL
MLL	TRX1, HRX, ALL-1, HTRX1, CXXC7, MLL1A, KMT2A	11q23	myeloid/lymphoid or mixed-lineage leukemia (trithorax homolog, Drosophila)	GPHN	KIAA1385	14q23.3	gephyrin	AML,ALL
MLL	TRX1, HRX, ALL-1, HTRX1, CXXC7, MLL1A, KMT2A	11q23	myeloid/lymphoid or mixed-lineage leukemia (trithorax homolog, Drosophila)	GMPS		3q24	guanine monphosphate synthetase	AML,ALL
MLL	TRX1, HRX, ALL-1, HTRX1, CXXC7, MLL1A, KMT2A	11q23	myeloid/lymphoid or mixed-lineage leukemia (trithorax homolog, Drosophila)	ABI1	E3B1, ABI-1	10p12.1	abl-interactor 1	AML,ALL
MLL	TRX1, HRX, ALL-1, HTRX1, CXXC7, MLL1A, KMT2A	11q23	myeloid/lymphoid or mixed-lineage leukemia (trithorax homolog, Drosophila)	ARHGEF12	KIAA0382, LARG	11q23.3	Rho guanine nucleotide exchange factor (GEF) 12	AML,ALL
MLL	TRX1, HRX, ALL-1, HTRX1, CXXC7, MLL1A, KMT2A	11q23	myeloid/lymphoid or mixed-lineage leukemia (trithorax homolog, Drosophila)	GAS7	KIAA0394, MGC1348	17p13.1	growth arrest-specific 7	AML,ALL
MLL	TRX1, HRX, ALL-1, HTRX1, CXXC7, MLL1A, KMT2A	11q23	myeloid/lymphoid or mixed-lineage leukemia (trithorax homolog, Drosophila)	FOXO3	AF6q21, FOXO2	6q21	forkhead box O3	AML,ALL
MLL	TRX1, HRX, ALL-1, HTRX1, CXXC7, MLL1A, KMT2A	11q23	myeloid/lymphoid or mixed-lineage leukemia (trithorax homolog, Drosophila)	AFF3	MLLT2-like	2q11.2-q12	AF4/FMR2 family, member 3	AML,ALL
MLL	TRX1, HRX, ALL-1, HTRX1, CXXC7, MLL1A, KMT2A	11q23	myeloid/lymphoid or mixed-lineage leukemia (trithorax homolog, Drosophila)	TET1	LCX, KIAA1676, bA119F7.1	10q21	tet oncogene 1	AML,ALL
MLL	TRX1, HRX, ALL-1, HTRX1, CXXC7, MLL1A, KMT2A	11q23	myeloid/lymphoid or mixed-lineage leukemia (trithorax homolog, Drosophila)	SEPT6	KIAA0128, SEP2, SEPT2, MGC16619, MGC20339	Xq24	septin 6	AML,ALL
MLL	TRX1, HRX, ALL-1, HTRX1, CXXC7, MLL1A, KMT2A	11q23	myeloid/lymphoid or mixed-lineage leukemia (trithorax homolog, Drosophila)	LPP		3q27-q28	LIM domain containing preferred translocation partner in lipoma	AML,ALL
MLL	TRX1, HRX, ALL-1, HTRX1, CXXC7, MLL1A, KMT2A	11q23	myeloid/lymphoid or mixed-lineage leukemia (trithorax homolog, Drosophila)	RUNX1T1	CDR, ETO, MTG8, ZMYND2	8q22	runt-related transcription factor 1; translocated to, 1 (cyclin D-related)	AML,ALL
MLL	TRX1, HRX, ALL-1, HTRX1, CXXC7, MLL1A, KMT2A	11q23	myeloid/lymphoid or mixed-lineage leukemia (trithorax homolog, Drosophila)	ARHGAP26	GRAF, KIAA0621, OPHN1L, OPHN1L1	5q31	Rho GTPase activating protein 26	AML,ALL
MLL	TRX1, HRX, ALL-1, HTRX1, CXXC7, MLL1A, KMT2A	11q23	myeloid/lymphoid or mixed-lineage leukemia (trithorax homolog, Drosophila)	EP300	p300, KAT3B	22q13.2	E1A binding protein p300	AML,ALL
MLL	TRX1, HRX, ALL-1, HTRX1, CXXC7, MLL1A, KMT2A	11q23	myeloid/lymphoid or mixed-lineage leukemia (trithorax homolog, Drosophila)	PICALM	CALM, CLTH	11q14	phosphatidylinositol binding clathrin assembly protein	AML,ALL
MLL	TRX1, HRX, ALL-1, HTRX1, CXXC7, MLL1A, KMT2A	11q23	myeloid/lymphoid or mixed-lineage leukemia (trithorax homolog, Drosophila)	CLP1	HEAB, hClp1	11q12	CLP1, cleavage and polyadenylation factor I subunit, homolog (S. cerevisiae)	AML,ALL
MLLT1	ENL, LTG19, YEATS1	19p13.3	myeloid/lymphoid or mixed-lineage leukemia (trithorax homolog, Drosophila); translocated to, 1	MLL	TRX1, HRX, ALL-1, HTRX1, CXXC7, MLL1A, KMT2A	11q23	myeloid/lymphoid or mixed-lineage leukemia (trithorax homolog, Drosophila)	AL
MLLT10	AF10	10p12	myeloid/lymphoid or mixed-lineage leukemia (trithorax homolog, Drosophila); translocated to, 10	MLL	TRX1, HRX, ALL-1, HTRX1, CXXC7, MLL1A, KMT2A	11q23	myeloid/lymphoid or mixed-lineage leukemia (trithorax homolog, Drosophila)	AL
MLLT10	AF10	10p12	myeloid/lymphoid or mixed-lineage leukemia (trithorax homolog, Drosophila); translocated to, 10	PICALM	CALM, CLTH	11q14	phosphatidylinositol binding clathrin assembly protein	AL
MLLT10	AF10	10p12	myeloid/lymphoid or mixed-lineage leukemia (trithorax homolog, Drosophila); translocated to, 10	CDK6	PLSTIRE	7q21-q22	cyclin-dependent kinase 6	AL
AFF1	AF-4, AF4	4q21.3	AF4/FMR2 family, member 1	MLL	TRX1, HRX, ALL-1, HTRX1, CXXC7, MLL1A, KMT2A	11q23	myeloid/lymphoid or mixed-lineage leukemia (trithorax homolog, Drosophila)	AL
MLLT3	AF-9, AF9, YEATS3	9p22	myeloid/lymphoid or mixed-lineage leukemia (trithorax homolog, Drosophila); translocated to, 3	MLL	TRX1, HRX, ALL-1, HTRX1, CXXC7, MLL1A, KMT2A	11q23	myeloid/lymphoid or mixed-lineage leukemia (trithorax homolog, Drosophila)	ALL
MLLT4	AF-6, AF6	6q27	myeloid/lymphoid or mixed-lineage leukemia (trithorax homolog, Drosophila); translocated to, 4	MLL	TRX1, HRX, ALL-1, HTRX1, CXXC7, MLL1A, KMT2A	11q23	myeloid/lymphoid or mixed-lineage leukemia (trithorax homolog, Drosophila)	AL
MLLT6	AF17, FLJ23480	17q21	myeloid/lymphoid or mixed-lineage leukemia (trithorax homolog, Drosophila); translocated to, 6	MLL	TRX1, HRX, ALL-1, HTRX1, CXXC7, MLL1A, KMT2A	11q23	myeloid/lymphoid or mixed-lineage leukemia (trithorax homolog, Drosophila)	AL
FOXO4	AFX1	Xq13.1	forkhead box O4	MLL	TRX1, HRX, ALL-1, HTRX1, CXXC7, MLL1A, KMT2A	11q23	myeloid/lymphoid or mixed-lineage leukemia (trithorax homolog, Drosophila)	AL
MN1	MGCR1-PEN	22q12.1	meningioma (disrupted in balanced translocation) 1	ETV6	TEL	12p13	ets variant 6	AML,meningioma
FN1	MSF, CIG, LETS, GFND2, FINC	2q34	fibronectin 1	MLL	TRX1, HRX, ALL-1, HTRX1, CXXC7, MLL1A, KMT2A	11q23	myeloid/lymphoid or mixed-lineage leukemia (trithorax homolog, Drosophila)	AML*
MSI2		17q23.2	musashi homolog 2 (Drosophila)	HOXA9		7p15.2	homeobox A9	CML
MSN		Xq11.1	moesin	ALK	CD246	2p23	anaplastic lymphoma receptor tyrosine kinase	ALCL
SH2D1A	XLP, MTCP1, DSHP, XLPD, EBVS, SAP	Xq25	SH2 domain protein 1A	TRA@	TRA	14q11.2	T cell receptor alpha locus	Tcellprolymphocyticleukemia
MUC1	CD227, PEM	1q22	mucin 1, cell surface associated	IGH@	IGH	14q32.32-q32.33	immunoglobulin heavy locus	B-NHL
MYC	c-Myc, bHLHe39	8q24	v-myc myelocytomatosis viral oncogene homolog (avian)	IGK@	IGK	2p11.2	immunoglobulin kappa locus	Burkittlymphoma,amplifiedinothercancers,B-CLL
MYC	c-Myc, bHLHe39	8q24	v-myc myelocytomatosis viral oncogene homolog (avian)	BCL6	ZBTB27, LAZ3, BCL5, BCL6A	3q27	B-cell CLL/lymphoma 6	Burkittlymphoma,amplifiedinothercancers,B-CLL
MYC	c-Myc, bHLHe39	8q24	v-myc myelocytomatosis viral oncogene homolog (avian)	BCL7A		12q24.1	B-cell CLL/lymphoma 7A	Burkittlymphoma,amplifiedinothercancers,B-CLL
MYC	c-Myc, bHLHe39	8q24	v-myc myelocytomatosis viral oncogene homolog (avian)	BTG1		12q22	B-cell translocation gene 1, anti-proliferative	Burkittlymphoma,amplifiedinothercancers,B-CLL
MYC	c-Myc, bHLHe39	8q24	v-myc myelocytomatosis viral oncogene homolog (avian)	TRA@	TRA	14q11.2	T cell receptor alpha locus	Burkittlymphoma,amplifiedinothercancers,B-CLL
MYC	c-Myc, bHLHe39	8q24	v-myc myelocytomatosis viral oncogene homolog (avian)	IGH@	IGH	14q32.32-q32.33	immunoglobulin heavy locus	Burkittlymphoma,amplifiedinothercancers,B-CLL
MYH11	SMMHC, SMHC	16p13.11	myosin, heavy chain 11, smooth muscle	CBFB	PEBP2B	16q22.1	core-binding factor, beta subunit	AML
MYH9	NMMHCA, NMHC-II-A, MHA, FTNS, EPSTS	22q13.1	myosin, heavy chain 9, non-muscle	ALK	CD246	2p23	anaplastic lymphoma receptor tyrosine kinase	ALCL
MYST4	querkopf, qkf, Morf, KAT6B, MOZ2	10q22.2	MYST histone acetyltransferase (monocytic leukemia) 4	CREBBP	RTS, CBP, KAT3A	16p13.3	CREB binding protein	AML
NACA	NACA1	12q23-q24.1	nascent polypeptide-associated complex alpha subunit	BCL6	ZBTB27, LAZ3, BCL5, BCL6A	3q27	B-cell CLL/lymphoma 6	NHL
NCOA1	SRC1, F-SRC-1, NCoA-1, KAT13A, RIP160, bHLHe74	2p23	nuclear receptor coactivator 1	PAX3	HUP2	2q36.1	paired box 3	alveolarrhadomyosarcoma
NCOA2	TIF2, GRIP1, NCoA-2, KAT13C, bHLHe75	8q13	nuclear receptor coactivator 2	MYST3	MOZ, KAT6A	8p11	MYST histone acetyltransferase (monocytic leukemia) 3	AML
NCOA4	ARA70, RFG, ELE1, PTC3, DKFZp762E1112	10q11.2	nuclear receptor coactivator 4	RET	PTC, CDHF12, RET51	10q11.2	ret proto-oncogene	papillarythyroid
NFKB2	LYT-10, p52	10q24	nuclear factor of kappa light polypeptide gene enhancer in B-cells 2 (p49/p100)	IGH@	IGH	14q32.32-q32.33	immunoglobulin heavy locus	B-NHL
NIN		14q21-q22	ninein (GSK3B interacting protein)	PDGFRB	JTK12, CD140b, PDGFR1	5q33.1	platelet-derived growth factor receptor, beta polypeptide	MPD
NONO	NRB54, NMT55, P54NRB, P54	Xq13.1	non-POU domain containing, octamer-binding	TFE3	TFEA, bHLHe33	Xp11.22	transcription factor binding to IGHM enhancer 3	papillaryrenalcancer
NOTCH1		9q34.3	Notch homolog 1, translocation-associated (Drosophila)	TRB@	TRB	7q34	T cell receptor beta locus	T-ALL
NPM1	B23, NPM	5q35	nucleophosmin (nucleolar phosphoprotein B23, numatrin)	ALK	CD246	2p23	anaplastic lymphoma receptor tyrosine kinase	NHL,APL,AML
NPM1	B23, NPM	5q35	nucleophosmin (nucleolar phosphoprotein B23, numatrin)	RARA	RAR, NR1B1	17q21.1	retinoic acid receptor, alpha	NHL,APL,AML
NPM1	B23, NPM	5q35	nucleophosmin (nucleolar phosphoprotein B23, numatrin)	MLF1		3q25	myeloid leukemia factor 1	NHL,APL,AML
NR4A3	CSMF, CHN, NOR1, MINOR	9q22	nuclear receptor subfamily 4, group A, member 3	EWSR1	EWS	22q12.2	Ewing sarcoma breakpoint region 1	extraskeletalmyxoidchondrosarcoma
NSD1	ARA267, FLJ22263, KMT3B	5q35	nuclear receptor binding SET domain protein 1	NUP98	NUP96	11p15	nucleoporin 98kDa	AML
NTRK1	TRK, TRKA, MTC	1q21-q22	neurotrophic tyrosine kinase, receptor, type 1	TPM3	TRK	1q21.2	tropomyosin 3	papillarythyroid
NTRK1	TRK, TRKA, MTC	1q21-q22	neurotrophic tyrosine kinase, receptor, type 1	TPR		1q25	translocated promoter region (to activated MET oncogene)	papillarythyroid
NTRK1	TRK, TRKA, MTC	1q21-q22	neurotrophic tyrosine kinase, receptor, type 1	TFG	TF6, FLJ36137	3q12.2	TRK-fused gene	papillarythyroid
NTRK3	TRKC	15q24-q25	neurotrophic tyrosine kinase, receptor, type 3	ETV6	TEL	12p13	ets variant 6	congenitalfibrosarcoma,Secretorybreast
NUMA1		11q13	nuclear mitotic apparatus protein 1	RARA	RAR, NR1B1	17q21.1	retinoic acid receptor, alpha	APL
NUP214	CAIN, CAN, D9S46E, N214	9q34	nucleoporin 214kDa	DEK	D6S231E	6p23	DEK oncogene	AML,T-ALL
NUP214	CAIN, CAN, D9S46E, N214	9q34	nucleoporin 214kDa	SET	PHAPII, 2PP2A, IPP2A2	9q34	SET nuclear oncogene	AML,T-ALL
NUP214	CAIN, CAN, D9S46E, N214	9q34	nucleoporin 214kDa	ABL1	JTK7, c-ABL, p150	9q34.1	c-abl oncogene 1, receptor tyrosine kinase	AML,T-ALL
NUP98	NUP96	11p15	nucleoporin 98kDa	HOXA9		7p15.2	homeobox A9	AML
NUP98	NUP96	11p15	nucleoporin 98kDa	NSD1	ARA267, FLJ22263, KMT3B	5q35	nuclear receptor binding SET domain protein 1	AML
NUP98	NUP96	11p15	nucleoporin 98kDa	WHSC1L1	FLJ20353, NSD3	8p11.2	Wolf-Hirschhorn syndrome candidate 1-like 1	AML
NUP98	NUP96	11p15	nucleoporin 98kDa	DDX10	HRH-J8	11q22-q23	DEAD (Asp-Glu-Ala-Asp) box polypeptide 10	AML
NUP98	NUP96	11p15	nucleoporin 98kDa	TOP1		20q12-q13.1	topoisomerase (DNA) I	AML
NUP98	NUP96	11p15	nucleoporin 98kDa	HOXD13		2q31.1	homeobox D13	AML
NUP98	NUP96	11p15	nucleoporin 98kDa	PRRX1	PHOX1	1q24.3	paired related homeobox 1	AML
NUP98	NUP96	11p15	nucleoporin 98kDa	HOXA13		7p15.2	homeobox A13	AML
NUP98	NUP96	11p15	nucleoporin 98kDa	HOXD11		2q31.1	homeobox D11	AML
NUP98	NUP96	11p15	nucleoporin 98kDa	HOXA11		7p15.2	homeobox A11	AML
NUP98	NUP96	11p15	nucleoporin 98kDa	RAP1GDS1	SmgGDS	4q23-q25	RAP1, GTP-GDP dissociation stimulator 1	AML
NUP98	NUP96	11p15	nucleoporin 98kDa	HOXC11		12q13.13	homeobox C11	AML
C15ORF55	NUT, DKFZp434O192	15q14	chromosome 15 open reading frame 55	BRD4	HUNKI, MCAP, CAP, HUNK1	19	bromodomain containing 4	lethalmidlinecarcinomaofyoungpeople
OLIG2	RACK17, OLIGO2, bHLHe19	21q22.11	oligodendrocyte lineage transcription factor 2	TRA@	TRA	14q11.2	T cell receptor alpha locus	T-ALL
OMD	osteoadherin, SLRR2C	9q22.31	osteomodulin	USP6	Tre-2, TRE17, Tre2	17p13	ubiquitin specific peptidase 6 (Tre-2 oncogene)	aneurysmalbonecysts
PAFAH1B2		11q23	platelet-activating factor acetylhydrolase, isoform Ib, beta subunit 30kDa	IGH@	IGH	14q32.32-q32.33	immunoglobulin heavy locus	MLCLS
PAX3	HUP2	2q36.1	paired box 3	FOXO1	FKH1	13q14.1	forkhead box O1	alveolarrhabdomyosarcoma
PAX3	HUP2	2q36.1	paired box 3	NCOA1	SRC1, F-SRC-1, NCoA-1, KAT13A, RIP160, bHLHe74	2p23	nuclear receptor coactivator 1	alveolarrhabdomyosarcoma
PAX5	BSAP	9p13.2	paired box 5	IGH@	IGH	14q32.32-q32.33	immunoglobulin heavy locus	NHL,ALL,B-ALL
PAX5	BSAP	9p13.2	paired box 5	ETV6	TEL	12p13	ets variant 6	NHL,ALL,B-ALL
PAX5	BSAP	9p13.2	paired box 5	PML	MYL, TRIM19, RNF71	15q22	promyelocytic leukemia	NHL,ALL,B-ALL
PAX5	BSAP	9p13.2	paired box 5	FOXP1	QRF1, 12CC4, HSPC215, hFKH1B	3p14.1	forkhead box P1	NHL,ALL,B-ALL
PAX5	BSAP	9p13.2	paired box 5	ZNF521	EHZF, Evi3	18q11.2	zinc finger protein 521	NHL,ALL,B-ALL
PAX5	BSAP	9p13.2	paired box 5	ELN	WBS, WS, SVAS	7q11.1-q21.1	elastin	NHL,ALL,B-ALL
PAX7	Hup1	1p36.13	paired box 7	FOXO1	FKH1	13q14.1	forkhead box O1	alveolarrhabdomyosarcoma
PAX8		2q13	paired box 8	PPARG	PPARG1, PPARG2, NR1C3, PPARgamma	3p25	peroxisome proliferator-activated receptor gamma	follicularthyroid
PBX1		1q23.3	pre-B-cell leukemia homeobox 1	TCF7L1		2p11.2	transcription factor 7-like 1 (T-cell specific, HMG-box)	preB-ALL,myoepithelioma
PBX1		1q23.3	pre-B-cell leukemia homeobox 1	EWSR1	EWS	22q12.2	Ewing sarcoma breakpoint region 1	preB-ALL,myoepithelioma
MBD1	PCM1, CXXC3	18q21	methyl-CpG binding domain protein 1	RET	PTC, CDHF12, RET51	10q11.2	ret proto-oncogene	papillarythyroid,CML,MPD
MBD1	PCM1, CXXC3	18q21	methyl-CpG binding domain protein 1	JAK2	JTK10	9p24	Janus kinase 2 (a protein tyrosine kinase)	papillarythyroid,CML,MPD
PCSK7	PC7, PC8, LPC, SPC7	11q23-q24	proprotein convertase subtilisin/kexin type 7	IGH@	IGH	14q32.32-q32.33	immunoglobulin heavy locus	MLCLS
PDE4DIP	KIAA0477, KIAA0454, MMGL	1q21.1	phosphodiesterase 4D interacting protein	PDGFRB	JTK12, CD140b, PDGFR1	5q33.1	platelet-derived growth factor receptor, beta polypeptide	MPD
PDGFB	SSV	22q13.1	platelet-derived growth factor beta polypeptide (simian sarcoma viral (v-sis) oncogene homolog)	COL1A1	OI4	17q21.33	collagen, type I, alpha 1	DFSP
PDGFRA	CD140a, PDGFR2	4q12	platelet-derived growth factor receptor, alpha polypeptide	FIP1L1	DKFZp586K0717	4q11-q12	FIP1 like 1 (S. cerevisiae)	GIST,idiopathichypereosinophilicsyndrome
PDGFRB	JTK12, CD140b, PDGFR1	5q33.1	platelet-derived growth factor receptor, beta polypeptide	ETV6	TEL	12p13	ets variant 6	MPD,AML,CMML,CML
PDGFRB	JTK12, CD140b, PDGFR1	5q33.1	platelet-derived growth factor receptor, beta polypeptide	TRIP11	CEV14, Trip230, GMAP-210	14q31-q32	thyroid hormone receptor interactor 11	MPD,AML,CMML,CML
PDGFRB	JTK12, CD140b, PDGFR1	5q33.1	platelet-derived growth factor receptor, beta polypeptide	HIP1	ILWEQ	7q11.23	huntingtin interacting protein 1	MPD,AML,CMML,CML
PDGFRB	JTK12, CD140b, PDGFR1	5q33.1	platelet-derived growth factor receptor, beta polypeptide	RABEP1	neurocrescin, RAB5EP, RABPT5, rabaptin-5	17p13.2	rabaptin, RAB GTPase binding effector protein 1	MPD,AML,CMML,CML
PDGFRB	JTK12, CD140b, PDGFR1	5q33.1	platelet-derived growth factor receptor, beta polypeptide	CCDC6	PTC, TPC, H4	10q21.2	coiled-coil domain containing 6	MPD,AML,CMML,CML
PDGFRB	JTK12, CD140b, PDGFR1	5q33.1	platelet-derived growth factor receptor, beta polypeptide	NIN		14q21-q22	ninein (GSK3B interacting protein)	MPD,AML,CMML,CML
PDGFRB	JTK12, CD140b, PDGFR1	5q33.1	platelet-derived growth factor receptor, beta polypeptide	CYTSB	HCMOGT-1, FLJ36955, NSP	17p11.2		MPD,AML,CMML,CML
PDGFRB	JTK12, CD140b, PDGFR1	5q33.1	platelet-derived growth factor receptor, beta polypeptide	PDE4DIP	KIAA0477, KIAA0454, MMGL	1q21.1	phosphodiesterase 4D interacting protein	MPD,AML,CMML,CML
PGAP3	MGC9753, CAB2, PP1498, PER1	17q21.2		ETV6	TEL	12p13	ets variant 6	AML,CMML
PICALM	CALM, CLTH	11q14	phosphatidylinositol binding clathrin assembly protein	MLLT10	AF10	10p12	myeloid/lymphoid or mixed-lineage leukemia (trithorax homolog, Drosophila); translocated to, 10	TALL,AML,
PICALM	CALM, CLTH	11q14	phosphatidylinositol binding clathrin assembly protein	MLL	TRX1, HRX, ALL-1, HTRX1, CXXC7, MLL1A, KMT2A	11q23	myeloid/lymphoid or mixed-lineage leukemia (trithorax homolog, Drosophila)	TALL,AML,
LONP1	LonHS, hLON, PIM1	19p13.2	lon peptidase 1, mitochondrial	BCL6	ZBTB27, LAZ3, BCL5, BCL6A	3q27	B-cell CLL/lymphoma 6	NHL
PLAG1		8q12	pleiomorphic adenoma gene 1	TCEA1P2	TCEA1	3p22	transcription elongation factor A (SII), 1 pseudogene 2	salivaryadenoma
PLAG1		8q12	pleiomorphic adenoma gene 1	LIFR	CD118	5p13-p12	leukemia inhibitory factor receptor alpha	salivaryadenoma
PLAG1		8q12	pleiomorphic adenoma gene 1	CTNNB1	beta-catenin	3p21	catenin (cadherin-associated protein), beta 1, 88kDa	salivaryadenoma
PML	MYL, TRIM19, RNF71	15q22	promyelocytic leukemia	RARA	RAR, NR1B1	17q21.1	retinoic acid receptor, alpha	APL,ALL
PML	MYL, TRIM19, RNF71	15q22	promyelocytic leukemia	PAX5	BSAP	9p13.2	paired box 5	APL,ALL
PRRX1	PHOX1	1q24.3	paired related homeobox 1	NUP98	NUP96	11p15	nucleoporin 98kDa	AML
SEPT5	HCDCREL-1, H5	22q11.2	septin 5	MLL	TRX1, HRX, ALL-1, HTRX1, CXXC7, MLL1A, KMT2A	11q23	myeloid/lymphoid or mixed-lineage leukemia (trithorax homolog, Drosophila)	AML
POU2AF1	OBF1	11q23.1	POU class 2 associating factor 1	BCL6	ZBTB27, LAZ3, BCL5, BCL6A	3q27	B-cell CLL/lymphoma 6	NHL
POU5F1	OCT3, Oct4, MGC22487	6p21.33	POU class 5 homeobox 1	EWSR1	EWS	22q12.2	Ewing sarcoma breakpoint region 1	sarcoma
PPARG	PPARG1, PPARG2, NR1C3, PPARgamma	3p25	peroxisome proliferator-activated receptor gamma	PAX8		2q13	paired box 8	follicularthyroid
PRCC	RCCP1	1q21.1	papillary renal cell carcinoma (translocation-associated)	TFE3	TFEA, bHLHe33	Xp11.22	transcription factor binding to IGHM enhancer 3	papillaryrenal
PRDM16	MEL1, PFM13, KIAA1675, MGC166915	1p36.23-p33	PR domain containing 16	MECOM	MDS1-EVI1, PRDM3	3q26	\N	MDS,AML
PRKAR1A		17q23-q24	protein kinase, cAMP-dependent, regulatory, type I, alpha (tissue specific extinguisher 1)	RET	PTC, CDHF12, RET51	10q11.2	ret proto-oncogene	papillarythyroid
MALAT1	PRO1073, MALAT-1, NCRNA00047, HCN, NEAT2	11q13.1	metastasis associated lung adenocarcinoma transcript 1 (non-protein coding)	TFEB	TCFEB, bHLHe35	6p21	transcription factor EB	renalcellcarcinoma(childhoodepithelioid)
PSIP1	p52, LEDGF, p75	9p22.2	PC4 and SFRS1 interacting protein 1	NUP98	NUP96	11p15	nucleoporin 98kDa	AML
RABEP1	neurocrescin, RAB5EP, RABPT5, rabaptin-5	17p13.2	rabaptin, RAB GTPase binding effector protein 1	PDGFRB	JTK12, CD140b, PDGFR1	5q33.1	platelet-derived growth factor receptor, beta polypeptide	CMML
RAD51L1	REC2, hREC2, R51H2	14q23-q24.2	RAD51-like 1 (S. cerevisiae)	HMGA2	BABL, LIPO	12q15	high mobility group AT-hook 2	lipoma,uterineleiomyoma
RANBP17		5q34	RAN binding protein 17	TRD@	TRD, TCRDV1	14q11.2	T cell receptor delta locus	ALL
RAP1GDS1	SmgGDS	4q23-q25	RAP1, GTP-GDP dissociation stimulator 1	NUP98	NUP96	11p15	nucleoporin 98kDa	T-ALL
RARA	RAR, NR1B1	17q21.1	retinoic acid receptor, alpha	PML	MYL, TRIM19, RNF71	15q22	promyelocytic leukemia	APL
RARA	RAR, NR1B1	17q21.1	retinoic acid receptor, alpha	ZBTB16	PLZF	11q23	zinc finger and BTB domain containing 16	APL
RARA	RAR, NR1B1	17q21.1	retinoic acid receptor, alpha	TRIM24	hTIF1, Tif1a, RNF82	7q32-q34	tripartite motif-containing 24	APL
RARA	RAR, NR1B1	17q21.1	retinoic acid receptor, alpha	NUMA1		11q13	nuclear mitotic apparatus protein 1	APL
RARA	RAR, NR1B1	17q21.1	retinoic acid receptor, alpha	NPM1	B23, NPM	5q35	nucleophosmin (nucleolar phosphoprotein B23, numatrin)	APL
RBM15	OTT, OTT1	1p13	RNA binding motif protein 15	MKL1	KIAA1438, MAL, MRTF-A, BSAC	22q13	megakaryoblastic leukemia (translocation) 1	acutemegakaryocyticleukemia
RET	PTC, CDHF12, RET51	10q11.2	ret proto-oncogene	CCDC6	PTC, TPC, H4	10q21.2	coiled-coil domain containing 6	medullarythyroid,papillarythyroid,pheochromocytoma
RET	PTC, CDHF12, RET51	10q11.2	ret proto-oncogene	PRKAR1A		17q23-q24	protein kinase, cAMP-dependent, regulatory, type I, alpha (tissue specific extinguisher 1)	medullarythyroid,papillarythyroid,pheochromocytoma
RET	PTC, CDHF12, RET51	10q11.2	ret proto-oncogene	NCOA4	ARA70, RFG, ELE1, PTC3, DKFZp762E1112	10q11.2	nuclear receptor coactivator 4	medullarythyroid,papillarythyroid,pheochromocytoma
RET	PTC, CDHF12, RET51	10q11.2	ret proto-oncogene	MBD1	PCM1, CXXC3	18q21	methyl-CpG binding domain protein 1	medullarythyroid,papillarythyroid,pheochromocytoma
RET	PTC, CDHF12, RET51	10q11.2	ret proto-oncogene	GOLGA5	ret-II, golgin-84, rfg5, GOLIM5	14q	golgi autoantigen, golgin subfamily a, 5	medullarythyroid,papillarythyroid,pheochromocytoma
RET	PTC, CDHF12, RET51	10q11.2	ret proto-oncogene	TRIM33	TIF1GAMMA, FLJ11429, KIAA1113, TIFGAMMA, RFG7, TF1G, TIF1G, PTC7	1p13.1	tripartite motif-containing 33	medullarythyroid,papillarythyroid,pheochromocytoma
RET	PTC, CDHF12, RET51	10q11.2	ret proto-oncogene	KTN1	KIAA0004, CG1	14q22.1	kinectin 1 (kinesin receptor)	medullarythyroid,papillarythyroid,pheochromocytoma
ROS1	MCF3, ROS, c-ros-1	6q21-q22	c-ros oncogene 1 , receptor tyrosine kinase	GOPC	dJ94G16.2, PIST, FIG, GOPC1, CAL	6q21	golgi associated PDZ and coiled-coil motif containing	glioblastoma
RPL22	EAP	1p36.31	ribosomal protein L22	RUNX1	PEBP2A2, AMLCR1	21q22.3	runt-related transcription factor 1	AML,CML
PSMD2	S2, P97, TRAP2, MGC14274, Rpn1	3q27.3	proteasome (prosome, macropain) 26S subunit, non-ATPase, 2	MECOM	MDS1-EVI1, PRDM3	3q26	\N	AML
RUNX1	PEBP2A2, AMLCR1	21q22.3	runt-related transcription factor 1	RPL22	EAP	1p36.31	ribosomal protein L22	AML,preB-ALL,T-ALL
RUNX1	PEBP2A2, AMLCR1	21q22.3	runt-related transcription factor 1	MECOM	MDS1-EVI1, PRDM3	3q26	\N	AML,preB-ALL,T-ALL
RUNX1	PEBP2A2, AMLCR1	21q22.3	runt-related transcription factor 1	MECOM	MDS1-EVI1, PRDM3	3q26	\N	AML,preB-ALL,T-ALL
RUNX1	PEBP2A2, AMLCR1	21q22.3	runt-related transcription factor 1	CBFA2T3	MTGR2, ZMYND4	16q24	core-binding factor, runt domain, alpha subunit 2; translocated to, 3	AML,preB-ALL,T-ALL
RUNX1	PEBP2A2, AMLCR1	21q22.3	runt-related transcription factor 1	RUNX1T1	CDR, ETO, MTG8, ZMYND2	8q22	runt-related transcription factor 1; translocated to, 1 (cyclin D-related)	AML,preB-ALL,T-ALL
RUNX1	PEBP2A2, AMLCR1	21q22.3	runt-related transcription factor 1	ETV6	TEL	12p13	ets variant 6	AML,preB-ALL,T-ALL
RUNX1	PEBP2A2, AMLCR1	21q22.3	runt-related transcription factor 1	AFF3	MLLT2-like	2q11.2-q12	AF4/FMR2 family, member 3	AML,preB-ALL,T-ALL
MYST3	MOZ, KAT6A	8p11	MYST histone acetyltransferase (monocytic leukemia) 3	CREBBP	RTS, CBP, KAT3A	16p13.3	CREB binding protein	AML
MYST3	MOZ, KAT6A	8p11	MYST histone acetyltransferase (monocytic leukemia) 3	NCOA2	TIF2, GRIP1, NCoA-2, KAT13C, bHLHe75	8q13	nuclear receptor coactivator 2	AML
MYST3	MOZ, KAT6A	8p11	MYST histone acetyltransferase (monocytic leukemia) 3	EP300	p300, KAT3B	22q13.2	E1A binding protein p300	AML
SEPT6	KIAA0128, SEP2, SEPT2, MGC16619, MGC20339	Xq24	septin 6	MLL	TRX1, HRX, ALL-1, HTRX1, CXXC7, MLL1A, KMT2A	11q23	myeloid/lymphoid or mixed-lineage leukemia (trithorax homolog, Drosophila)	AML
SET	PHAPII, 2PP2A, IPP2A2	9q34	SET nuclear oncogene	NUP214	CAIN, CAN, D9S46E, N214	9q34	nucleoporin 214kDa	AML
SFPQ	PSF	1p34.3	splicing factor proline/glutamine-rich (polypyrimidine tract binding protein associated)	TFE3	TFEA, bHLHe33	Xp11.22	transcription factor binding to IGHM enhancer 3	papillaryrenalcell
SFRS3	SRp20	6p21	splicing factor, arginine/serine-rich 3	BCL6	ZBTB27, LAZ3, BCL5, BCL6A	3q27	B-cell CLL/lymphoma 6	follicularlymphoma
SH3GL1	SH3P8, SH3D2B, CNSA1, EEN, MGC111371	19p13.3	SH3-domain GRB2-like 1	MLL	TRX1, HRX, ALL-1, HTRX1, CXXC7, MLL1A, KMT2A	11q23	myeloid/lymphoid or mixed-lineage leukemia (trithorax homolog, Drosophila)	AL
STIL		1p32	SCL/TAL1 interrupting locus	TAL1	SCL, bHLHa17	1p32	T-cell acute lymphocytic leukemia 1	T-ALL
SLC45A3	IPCA-6, prostein, IPCA-2, IPCA-8	1q32.1	solute carrier family 45, member 3	ETV1	ER81	7p22	ets variant 1	prostate
SLC45A3	IPCA-6, prostein, IPCA-2, IPCA-8	1q32.1	solute carrier family 45, member 3	ETV5	ERM	3q28	ets variant 5	prostate
SS18	SYT	18q11.2	synovial sarcoma translocation, chromosome 18	SSX1	CT5.1	Xp11.23	synovial sarcoma, X breakpoint 1	synovialsarcoma
SS18	SYT	18q11.2	synovial sarcoma translocation, chromosome 18	SSX2	HOM-MEL-40, HD21, MGC3884, MGC15364, MGC119055, CT5.2a	Xp11.22	synovial sarcoma, X breakpoint 2	synovialsarcoma
SS18L1	KIAA0693	20q13.3	synovial sarcoma translocation gene on chromosome 18-like 1	SSX1	CT5.1	Xp11.23	synovial sarcoma, X breakpoint 1	synovialsarcoma
ABI1	E3B1, ABI-1	10p12.1	abl-interactor 1	MLL	TRX1, HRX, ALL-1, HTRX1, CXXC7, MLL1A, KMT2A	11q23	myeloid/lymphoid or mixed-lineage leukemia (trithorax homolog, Drosophila)	AML
SSX1	CT5.1	Xp11.23	synovial sarcoma, X breakpoint 1	SS18	SYT	18q11.2	synovial sarcoma translocation, chromosome 18	synovialsarcoma
SSX2	HOM-MEL-40, HD21, MGC3884, MGC15364, MGC119055, CT5.2a	Xp11.22	synovial sarcoma, X breakpoint 2	SS18	SYT	18q11.2	synovial sarcoma translocation, chromosome 18	synovialsarcoma
SSX4	CT5.4	Xp11.23	synovial sarcoma, X breakpoint 4	SS18	SYT	18q11.2	synovial sarcoma translocation, chromosome 18	synovialsarcoma
SUZ12	JJAZ1, KIAA0160, CHET9	17q21	suppressor of zeste 12 homolog (Drosophila)	JAZF1	TIP27, DKFZp761K2222, ZNF802	7p15.2-p15.1	JAZF zinc finger 1	endometrialstromaltumours
SYK		9q22	spleen tyrosine kinase	ETV6	TEL	12p13	ets variant 6	MDS,peripheralT-celllymphoma
SYK		9q22	spleen tyrosine kinase	ITK	EMT, PSCTK2, LYK	5q31-q32	IL2-inducible T-cell kinase	MDS,peripheralT-celllymphoma
TAF15	hTAFII68, RBP56, Npl3	17q11.1-q11.2	TAF15 RNA polymerase II, TATA box binding protein (TBP)-associated factor, 68kDa	TEC	PSCTK4	4p12	transient erythroblastopenia of childhood	extraskeletalmyxoidchondrosarcomas,ALL
TAF15	hTAFII68, RBP56, Npl3	17q11.1-q11.2	TAF15 RNA polymerase II, TATA box binding protein (TBP)-associated factor, 68kDa	CHN1	RhoGAP2, ARHGAP2, n-chimerin	2q31-q32.1	chimerin (chimaerin) 1	extraskeletalmyxoidchondrosarcomas,ALL
TAF15	hTAFII68, RBP56, Npl3	17q11.1-q11.2	TAF15 RNA polymerase II, TATA box binding protein (TBP)-associated factor, 68kDa	ZNF384	CAGH1A, CIZ, NMP4, NP	12p12	zinc finger protein 384	extraskeletalmyxoidchondrosarcomas,ALL
TAL1	SCL, bHLHa17	1p32	T-cell acute lymphocytic leukemia 1	TRD@	TRD, TCRDV1	14q11.2	T cell receptor delta locus	lymphoblasticleukemia/biphasic
TAL1	SCL, bHLHa17	1p32	T-cell acute lymphocytic leukemia 1	STIL		1p32	SCL/TAL1 interrupting locus	lymphoblasticleukemia/biphasic
TAL2	bHLHa19	9q32	T-cell acute lymphocytic leukemia 2	TRB@	TRB	7q34	T cell receptor beta locus	T-ALL
TCEA1P2	TCEA1	3p22	transcription elongation factor A (SII), 1 pseudogene 2	PLAG1		8q12	pleiomorphic adenoma gene 1	salivaryadenoma
TCF12	HEB, HTF4, HsT17266, bHLHb20	15q21	transcription factor 12	TEC	PSCTK4	4p12	transient erythroblastopenia of childhood	extraskeletalmyxoidchondrosarcoma
TCF7L1		2p11.2	transcription factor 7-like 1 (T-cell specific, HMG-box)	PBX1		1q23.3	pre-B-cell leukemia homeobox 1	preB-ALL
TCF7L1		2p11.2	transcription factor 7-like 1 (T-cell specific, HMG-box)	EPAS1	MOP2, PASD2, HIF2A, HLF, bHLHe73	2p21-p16	endothelial PAS domain protein 1	preB-ALL
TCF7L1		2p11.2	transcription factor 7-like 1 (T-cell specific, HMG-box)	TFPT	FB1, amida, INO80F	19q13	TCF3 (E2A) fusion partner (in childhood Leukemia)	preB-ALL
TCL1A	TCL1	14q32.1	T-cell leukemia/lymphoma 1A	TRA@	TRA	14q11.2	T cell receptor alpha locus	T-CLL
TCL6	TCL6e1, TNG2, TNG1	14q32.1	T-cell leukemia/lymphoma 6	TRA@	TRA	14q11.2	T cell receptor alpha locus	T-ALL
TFE3	TFEA, bHLHe33	Xp11.22	transcription factor binding to IGHM enhancer 3	SFPQ	PSF	1p34.3	splicing factor proline/glutamine-rich (polypyrimidine tract binding protein associated)	papillaryrenal,alveolarsoftpartsarcoma
TFE3	TFEA, bHLHe33	Xp11.22	transcription factor binding to IGHM enhancer 3	ASPSCR1	ASPS, ASPL, UBXD9, UBXN9	17q25	alveolar soft part sarcoma chromosome region, candidate 1	papillaryrenal,alveolarsoftpartsarcoma
TFE3	TFEA, bHLHe33	Xp11.22	transcription factor binding to IGHM enhancer 3	PRCC	RCCP1	1q21.1	papillary renal cell carcinoma (translocation-associated)	papillaryrenal,alveolarsoftpartsarcoma
TFE3	TFEA, bHLHe33	Xp11.22	transcription factor binding to IGHM enhancer 3	NONO	NRB54, NMT55, P54NRB, P54	Xq13.1	non-POU domain containing, octamer-binding	papillaryrenal,alveolarsoftpartsarcoma
TFG	TF6, FLJ36137	3q12.2	TRK-fused gene	NTRK1	TRK, TRKA, MTC	1q21-q22	neurotrophic tyrosine kinase, receptor, type 1	papillarythyroid,ALCL
TFG	TF6, FLJ36137	3q12.2	TRK-fused gene	ALK	CD246	2p23	anaplastic lymphoma receptor tyrosine kinase	papillarythyroid,ALCL
TFPT	FB1, amida, INO80F	19q13	TCF3 (E2A) fusion partner (in childhood Leukemia)	TCF7L1		2p11.2	transcription factor 7-like 1 (T-cell specific, HMG-box)	pre-BALL
TFRC	CD71, TFR1	3q26.2-qter	transferrin receptor (p90, CD71)	BCL6	ZBTB27, LAZ3, BCL5, BCL6A	3q27	B-cell CLL/lymphoma 6	NHL
THRAP3	TRAP150	1p34.3	thyroid hormone receptor associated protein 3	USP6	Tre-2, TRE17, Tre2	17p13	ubiquitin specific peptidase 6 (Tre-2 oncogene)	aneurysmalbonecysts
TRIM24	hTIF1, Tif1a, RNF82	7q32-q34	tripartite motif-containing 24	RARA	RAR, NR1B1	17q21.1	retinoic acid receptor, alpha	APL
TLX1		10q24.32	T-cell leukemia homeobox 1	TRB@	TRB	7q34	T cell receptor beta locus	T-ALL
TLX1		10q24.32	T-cell leukemia homeobox 1	TRD@	TRD, TCRDV1	14q11.2	T cell receptor delta locus	T-ALL
TLX3	RNX	5q35.1	T-cell leukemia homeobox 3	BCL11B	CTIP-2, CTIP2, hRIT1-alpha	14q32	B-cell CLL/lymphoma 11B (zinc finger protein)	T-ALL
TMPRSS2	PRSS10	21q22.3	transmembrane protease, serine 2	ERG	erg-3, p55	21q22.3	v-ets erythroblastosis virus E26 oncogene homolog (avian)	prostate
TMPRSS2	PRSS10	21q22.3	transmembrane protease, serine 2	ETV1	ER81	7p22	ets variant 1	prostate
TMPRSS2	PRSS10	21q22.3	transmembrane protease, serine 2	ETV4	E1A-F, E1AF	17q21	ets variant 4	prostate
TMPRSS2	PRSS10	21q22.3	transmembrane protease, serine 2	ETV5	ERM	3q28	ets variant 5	prostate
TNFRSF17	BCM, CD269	16p13.1	tumor necrosis factor receptor superfamily, member 17	IL2	IL-2	4q26-q27	interleukin 2	intestinalT-celllymphoma
TOP1		20q12-q13.1	topoisomerase (DNA) I	NUP98	NUP96	11p15	nucleoporin 98kDa	AML*
TPM3	TRK	1q21.2	tropomyosin 3	NTRK1	TRK, TRKA, MTC	1q21-q22	neurotrophic tyrosine kinase, receptor, type 1	papillarythyroid,ALCL
TPM3	TRK	1q21.2	tropomyosin 3	ALK	CD246	2p23	anaplastic lymphoma receptor tyrosine kinase	papillarythyroid,ALCL
TPM4		19p13.1	tropomyosin 4	ALK	CD246	2p23	anaplastic lymphoma receptor tyrosine kinase	ALCL
TPR		1q25	translocated promoter region (to activated MET oncogene)	NTRK1	TRK, TRKA, MTC	1q21-q22	neurotrophic tyrosine kinase, receptor, type 1	papillarythyroid
TRA@	TRA	14q11.2	T cell receptor alpha locus	OLIG2	RACK17, OLIGO2, bHLHe19	21q22.11	oligodendrocyte lineage transcription factor 2	T-ALL
TRA@	TRA	14q11.2	T cell receptor alpha locus	MYC	c-Myc, bHLHe39	8q24	v-myc myelocytomatosis viral oncogene homolog (avian)	T-ALL
TRA@	TRA	14q11.2	T cell receptor alpha locus	TCL1A	TCL1	14q32.1	T-cell leukemia/lymphoma 1A	T-ALL
TRA@	TRA	14q11.2	T cell receptor alpha locus	TCL6	TCL6e1, TNG2, TNG1	14q32.1	T-cell leukemia/lymphoma 6	T-ALL
TRA@	TRA	14q11.2	T cell receptor alpha locus	SH2D1A	XLP, MTCP1, DSHP, XLPD, EBVS, SAP	Xq25	SH2 domain protein 1A	T-ALL
TRB@	TRB	7q34	T cell receptor beta locus	TLX1		10q24.32	T-cell leukemia homeobox 1	T-ALL
TRB@	TRB	7q34	T cell receptor beta locus	LCK		1p34.3	lymphocyte-specific protein tyrosine kinase	T-ALL
TRB@	TRB	7q34	T cell receptor beta locus	NOTCH1		9q34.3	Notch homolog 1, translocation-associated (Drosophila)	T-ALL
TRB@	TRB	7q34	T cell receptor beta locus	TAL2	bHLHa19	9q32	T-cell acute lymphocytic leukemia 2	T-ALL
TRB@	TRB	7q34	T cell receptor beta locus	LYL1	bHLHa18	19p13.2	lymphoblastic leukemia derived sequence 1	T-ALL
TRD@	TRD, TCRDV1	14q11.2	T cell receptor delta locus	TAL1	SCL, bHLHa17	1p32	T-cell acute lymphocytic leukemia 1	T-cellleukemia
TRD@	TRD, TCRDV1	14q11.2	T cell receptor delta locus	TLX1		10q24.32	T-cell leukemia homeobox 1	T-cellleukemia
TRD@	TRD, TCRDV1	14q11.2	T cell receptor delta locus	TLX1		10q24.32	T-cell leukemia homeobox 1	T-cellleukemia
TRD@	TRD, TCRDV1	14q11.2	T cell receptor delta locus	LMO1	TTG1, RHOM1	11p15	LIM domain only 1 (rhombotin 1)	T-cellleukemia
TRD@	TRD, TCRDV1	14q11.2	T cell receptor delta locus	LMO2	TTG2, RHOM2, RBTN2	11p13	LIM domain only 2 (rhombotin-like 1)	T-cellleukemia
TRD@	TRD, TCRDV1	14q11.2	T cell receptor delta locus	RANBP17		5q34	RAN binding protein 17	T-cellleukemia
TRIM33	TIF1GAMMA, FLJ11429, KIAA1113, TIFGAMMA, RFG7, TF1G, TIF1G, PTC7	1p13.1	tripartite motif-containing 33	RET	PTC, CDHF12, RET51	10q11.2	ret proto-oncogene	papillarythyroid
TRIP11	CEV14, Trip230, GMAP-210	14q31-q32	thyroid hormone receptor interactor 11	PDGFRB	JTK12, CD140b, PDGFR1	5q33.1	platelet-derived growth factor receptor, beta polypeptide	AML
TTL	MGC46235	2q13	tubulin tyrosine ligase	ETV6	TEL	12p13	ets variant 6	ALL
USP6	Tre-2, TRE17, Tre2	17p13	ubiquitin specific peptidase 6 (Tre-2 oncogene)	COL1A1	OI4	17q21.33	collagen, type I, alpha 1	aneurysmalbonecysts
USP6	Tre-2, TRE17, Tre2	17p13	ubiquitin specific peptidase 6 (Tre-2 oncogene)	CDH11	OB, CAD11	16q21	cadherin 11, type 2, OB-cadherin (osteoblast)	aneurysmalbonecysts
USP6	Tre-2, TRE17, Tre2	17p13	ubiquitin specific peptidase 6 (Tre-2 oncogene)	CNBP	RNF163, ZCCHC22, CNBP1	3q21	CCHC-type zinc finger, nucleic acid binding protein	aneurysmalbonecysts
USP6	Tre-2, TRE17, Tre2	17p13	ubiquitin specific peptidase 6 (Tre-2 oncogene)	OMD	osteoadherin, SLRR2C	9q22.31	osteomodulin	aneurysmalbonecysts
WHSC1	MMSET, NSD2	4p16.3	Wolf-Hirschhorn syndrome candidate 1	IGH@	IGH	14q32.32-q32.33	immunoglobulin heavy locus	MM
WHSC1L1	FLJ20353, NSD3	8p11.2	Wolf-Hirschhorn syndrome candidate 1-like 1	NUP98	NUP96	11p15	nucleoporin 98kDa	AML
ZBTB16	PLZF	11q23	zinc finger and BTB domain containing 16	RARA	RAR, NR1B1	17q21.1	retinoic acid receptor, alpha	APL
ZMYM2	RAMP, FIM, MYM	13q11-q12	zinc finger, MYM-type 2	FGFR1	H2, H3, H4, H5, CEK, FLG, BFGFR, N-SAM, CD331	8p12	fibroblast growth factor receptor 1	MPD,NHL
PATZ1	MAZR, dJ400N23, ZBTB19, ZSG, RIAZ, PATZ	22q12.2	POZ (BTB) and AT hook containing zinc finger 1	EWSR1	EWS	22q12.2	Ewing sarcoma breakpoint region 1	Ewingsarcoma
ZNF384	CAGH1A, CIZ, NMP4, NP	12p12	zinc finger protein 384	EWSR1	EWS	22q12.2	Ewing sarcoma breakpoint region 1	ALL
ZNF384	CAGH1A, CIZ, NMP4, NP	12p12	zinc finger protein 384	TAF15	hTAFII68, RBP56, Npl3	17q11.1-q11.2	TAF15 RNA polymerase II, TATA box binding protein (TBP)-associated factor, 68kDa	ALL
ZNF521	EHZF, Evi3	18q11.2	zinc finger protein 521	PAX5	BSAP	9p13.2	paired box 5	ALL
CNBP	RNF163, ZCCHC22, CNBP1	3q21	CCHC-type zinc finger, nucleic acid binding protein	USP6	Tre-2, TRE17, Tre2	17p13	ubiquitin specific peptidase 6 (Tre-2 oncogene)	aneurysmalbonecysts
IKZF1	hIk-1, LyF-1, Hs.54452, IKAROS	7pter-7qter	IKAROS family zinc finger 1 (Ikaros)	BCL6	ZBTB27, LAZ3, BCL5, BCL6A	3q27	B-cell CLL/lymphoma 6	ALL,DLBL
