# Human chromsome sizes and cytogenetic band position.
# Data based on hg18 assembly.
chr - hs1 1 0 247249719 green
chr - hs2 2 0 242951149 green
chr - hs3 3 0 199501827 green
chr - hs4 4 0 191273063 green
chr - hs5 5 0 180857866 green
chr - hs6 6 0 170899992 green
chr - hs7 7 0 158821424 green
chr - hs8 8 0 146274826 green
chr - hs9 9 0 140273252 green
chr - hs10 10 0 135374737 green
chr - hs11 11 0 134452384 green
chr - hs12 12 0 132349534 green
chr - hs13 13 0 114142980 green
chr - hs14 14 0 106368585 green
chr - hs15 15 0 100338915 green
chr - hs16 16 0 88827254 green
chr - hs17 17 0 78774742 green
chr - hs18 18 0 76117153 green
chr - hs19 19 0 63811651 green
chr - hs20 20 0 62435964 green
chr - hs21 21 0 46944323 green
chr - hs22 22 0 49691432 green
chr - hsX X 0 154913754 green
chr - hsY Y 0 57772954 green
band hs1 p36.33 p36.33 0 2300000 gneg
band hs1 p36.32 p36.32 2300000 5300000 gpos25
band hs1 p36.31 p36.31 5300000 7100000 gneg
band hs1 p36.23 p36.23 7100000 9200000 gpos25
band hs1 p36.22 p36.22 9200000 12600000 gneg
band hs1 p36.21 p36.21 12600000 16100000 gpos50
band hs1 p36.13 p36.13 16100000 20300000 gneg
band hs1 p36.12 p36.12 20300000 23800000 gpos25
band hs1 p36.11 p36.11 23800000 27800000 gneg
band hs1 p35.3 p35.3 27800000 30000000 gpos25
band hs1 p35.2 p35.2 30000000 32200000 gneg
band hs1 p35.1 p35.1 32200000 34400000 gpos25
band hs1 p34.3 p34.3 34400000 39600000 gneg
band hs1 p34.2 p34.2 39600000 43900000 gpos25
band hs1 p34.1 p34.1 43900000 46500000 gneg
band hs1 p33 p33 46500000 51300000 gpos75
band hs1 p32.3 p32.3 51300000 56200000 gneg
band hs1 p32.2 p32.2 56200000 58700000 gpos50
band hs1 p32.1 p32.1 58700000 60900000 gneg
band hs1 p31.3 p31.3 60900000 68700000 gpos50
band hs1 p31.2 p31.2 68700000 69500000 gneg
band hs1 p31.1 p31.1 69500000 84700000 gpos100
band hs1 p22.3 p22.3 84700000 88100000 gneg
band hs1 p22.2 p22.2 88100000 92000000 gpos75
band hs1 p22.1 p22.1 92000000 94500000 gneg
band hs1 p21.3 p21.3 94500000 99400000 gpos75
band hs1 p21.2 p21.2 99400000 102000000 gneg
band hs1 p21.1 p21.1 102000000 107000000 gpos100
band hs1 p13.3 p13.3 107000000 111600000 gneg
band hs1 p13.2 p13.2 111600000 115900000 gpos50
band hs1 p13.1 p13.1 115900000 117600000 gneg
band hs1 p12 p12 117600000 120700000 gpos50
band hs1 p11.2 p11.2 120700000 121100000 gneg
band hs1 p11.1 p11.1 121100000 124300000 acen
band hs1 q11 q11 124300000 128000000 acen
band hs1 q12 q12 128000000 142400000 gvar
band hs1 q21.1 q21.1 142400000 148000000 gneg
band hs1 q21.2 q21.2 148000000 149600000 gpos50
band hs1 q21.3 q21.3 149600000 153300000 gneg
band hs1 q22 q22 153300000 154800000 gpos50
band hs1 q23.1 q23.1 154800000 157300000 gneg
band hs1 q23.2 q23.2 157300000 158800000 gpos50
band hs1 q23.3 q23.3 158800000 163800000 gneg
band hs1 q24.1 q24.1 163800000 165500000 gpos50
band hs1 q24.2 q24.2 165500000 169100000 gneg
band hs1 q24.3 q24.3 169100000 171200000 gpos75
band hs1 q25.1 q25.1 171200000 174300000 gneg
band hs1 q25.2 q25.2 174300000 178600000 gpos50
band hs1 q25.3 q25.3 178600000 184000000 gneg
band hs1 q31.1 q31.1 184000000 189000000 gpos100
band hs1 q31.2 q31.2 189000000 192100000 gneg
band hs1 q31.3 q31.3 192100000 197500000 gpos100
band hs1 q32.1 q32.1 197500000 205300000 gneg
band hs1 q32.2 q32.2 205300000 209500000 gpos25
band hs1 q32.3 q32.3 209500000 212100000 gneg
band hs1 q41 q41 212100000 222100000 gpos100
band hs1 q42.11 q42.11 222100000 222700000 gneg
band hs1 q42.12 q42.12 222700000 225100000 gpos25
band hs1 q42.13 q42.13 225100000 228800000 gneg
band hs1 q42.2 q42.2 228800000 232700000 gpos50
band hs1 q42.3 q42.3 232700000 234600000 gneg
band hs1 q43 q43 234600000 241700000 gpos75
band hs1 q44 q44 241700000 247249719 gneg
band hs2 p25.3 p25.3 0 4300000 gneg
band hs2 p25.2 p25.2 4300000 7000000 gpos50
band hs2 p25.1 p25.1 7000000 12800000 gneg
band hs2 p24.3 p24.3 12800000 17000000 gpos75
band hs2 p24.2 p24.2 17000000 19100000 gneg
band hs2 p24.1 p24.1 19100000 23900000 gpos75
band hs2 p23.3 p23.3 23900000 27700000 gneg
band hs2 p23.2 p23.2 27700000 29800000 gpos25
band hs2 p23.1 p23.1 29800000 31900000 gneg
band hs2 p22.3 p22.3 31900000 36400000 gpos75
band hs2 p22.2 p22.2 36400000 38400000 gneg
band hs2 p22.1 p22.1 38400000 41600000 gpos50
band hs2 p21 p21 41600000 47600000 gneg
band hs2 p16.3 p16.3 47600000 52700000 gpos100
band hs2 p16.2 p16.2 52700000 54800000 gneg
band hs2 p16.1 p16.1 54800000 61100000 gpos100
band hs2 p15 p15 61100000 64000000 gneg
band hs2 p14 p14 64000000 70500000 gpos50
band hs2 p13.3 p13.3 70500000 72600000 gneg
band hs2 p13.2 p13.2 72600000 73900000 gpos50
band hs2 p13.1 p13.1 73900000 75400000 gneg
band hs2 p12 p12 75400000 83700000 gpos100
band hs2 p11.2 p11.2 83700000 91000000 gneg
band hs2 p11.1 p11.1 91000000 93300000 acen
band hs2 q11.1 q11.1 93300000 95700000 acen
band hs2 q11.2 q11.2 95700000 102100000 gneg
band hs2 q12.1 q12.1 102100000 105300000 gpos50
band hs2 q12.2 q12.2 105300000 106700000 gneg
band hs2 q12.3 q12.3 106700000 108600000 gpos25
band hs2 q13 q13 108600000 113800000 gneg
band hs2 q14.1 q14.1 113800000 118600000 gpos50
band hs2 q14.2 q14.2 118600000 122100000 gneg
band hs2 q14.3 q14.3 122100000 129600000 gpos50
band hs2 q21.1 q21.1 129600000 132200000 gneg
band hs2 q21.2 q21.2 132200000 134800000 gpos25
band hs2 q21.3 q21.3 134800000 136600000 gneg
band hs2 q22.1 q22.1 136600000 142400000 gpos100
band hs2 q22.2 q22.2 142400000 144700000 gneg
band hs2 q22.3 q22.3 144700000 148400000 gpos100
band hs2 q23.1 q23.1 148400000 149600000 gneg
band hs2 q23.2 q23.2 149600000 150300000 gpos25
band hs2 q23.3 q23.3 150300000 154600000 gneg
band hs2 q24.1 q24.1 154600000 159600000 gpos75
band hs2 q24.2 q24.2 159600000 163500000 gneg
band hs2 q24.3 q24.3 163500000 169500000 gpos75
band hs2 q31.1 q31.1 169500000 177700000 gneg
band hs2 q31.2 q31.2 177700000 180400000 gpos50
band hs2 q31.3 q31.3 180400000 182700000 gneg
band hs2 q32.1 q32.1 182700000 189100000 gpos75
band hs2 q32.2 q32.2 189100000 191600000 gneg
band hs2 q32.3 q32.3 191600000 197100000 gpos75
band hs2 q33.1 q33.1 197100000 203500000 gneg
band hs2 q33.2 q33.2 203500000 205600000 gpos50
band hs2 q33.3 q33.3 205600000 209100000 gneg
band hs2 q34 q34 209100000 215100000 gpos100
band hs2 q35 q35 215100000 221300000 gneg
band hs2 q36.1 q36.1 221300000 224900000 gpos75
band hs2 q36.2 q36.2 224900000 225800000 gneg
band hs2 q36.3 q36.3 225800000 230700000 gpos100
band hs2 q37.1 q37.1 230700000 235300000 gneg
band hs2 q37.2 q37.2 235300000 237000000 gpos50
band hs2 q37.3 q37.3 237000000 242951149 gneg
band hs3 p26.3 p26.3 0 3500000 gpos50
band hs3 p26.2 p26.2 3500000 5500000 gneg
band hs3 p26.1 p26.1 5500000 8700000 gpos50
band hs3 p25.3 p25.3 8700000 11500000 gneg
band hs3 p25.2 p25.2 11500000 12400000 gpos25
band hs3 p25.1 p25.1 12400000 14700000 gneg
band hs3 p24.3 p24.3 14700000 23800000 gpos100
band hs3 p24.2 p24.2 23800000 26400000 gneg
band hs3 p24.1 p24.1 26400000 30800000 gpos75
band hs3 p23 p23 30800000 32100000 gneg
band hs3 p22.3 p22.3 32100000 36500000 gpos50
band hs3 p22.2 p22.2 36500000 39300000 gneg
band hs3 p22.1 p22.1 39300000 43600000 gpos75
band hs3 p21.33 p21.33 43600000 44400000 gneg
band hs3 p21.32 p21.32 44400000 44700000 gpos50
band hs3 p21.31 p21.31 44700000 51400000 gneg
band hs3 p21.2 p21.2 51400000 51700000 gpos25
band hs3 p21.1 p21.1 51700000 54400000 gneg
band hs3 p14.3 p14.3 54400000 58500000 gpos50
band hs3 p14.2 p14.2 58500000 63700000 gneg
band hs3 p14.1 p14.1 63700000 71800000 gpos50
band hs3 p13 p13 71800000 74200000 gneg
band hs3 p12.3 p12.3 74200000 81800000 gpos75
band hs3 p12.2 p12.2 81800000 83700000 gneg
band hs3 p12.1 p12.1 83700000 87200000 gpos75
band hs3 p11.2 p11.2 87200000 89400000 gneg
band hs3 p11.1 p11.1 89400000 91700000 acen
band hs3 q11.1 q11.1 91700000 93200000 acen
band hs3 q11.2 q11.2 93200000 99800000 gvar
band hs3 q12.1 q12.1 99800000 101500000 gneg
band hs3 q12.2 q12.2 101500000 102500000 gpos25
band hs3 q12.3 q12.3 102500000 104400000 gneg
band hs3 q13.11 q13.11 104400000 107800000 gpos75
band hs3 q13.12 q13.12 107800000 109500000 gneg
band hs3 q13.13 q13.13 109500000 112800000 gpos50
band hs3 q13.2 q13.2 112800000 115000000 gneg
band hs3 q13.31 q13.31 115000000 118800000 gpos75
band hs3 q13.32 q13.32 118800000 120500000 gneg
band hs3 q13.33 q13.33 120500000 123400000 gpos75
band hs3 q21.1 q21.1 123400000 125400000 gneg
band hs3 q21.2 q21.2 125400000 127700000 gpos25
band hs3 q21.3 q21.3 127700000 131500000 gneg
band hs3 q22.1 q22.1 131500000 135700000 gpos25
band hs3 q22.2 q22.2 135700000 137400000 gneg
band hs3 q22.3 q22.3 137400000 140400000 gpos25
band hs3 q23 q23 140400000 144400000 gneg
band hs3 q24 q24 144400000 150400000 gpos100
band hs3 q25.1 q25.1 150400000 153500000 gneg
band hs3 q25.2 q25.2 153500000 156300000 gpos50
band hs3 q25.31 q25.31 156300000 158100000 gneg
band hs3 q25.32 q25.32 158100000 159900000 gpos50
band hs3 q25.33 q25.33 159900000 161200000 gneg
band hs3 q26.1 q26.1 161200000 169200000 gpos100
band hs3 q26.2 q26.2 169200000 172500000 gneg
band hs3 q26.31 q26.31 172500000 177300000 gpos75
band hs3 q26.32 q26.32 177300000 180600000 gneg
band hs3 q26.33 q26.33 180600000 184200000 gpos75
band hs3 q27.1 q27.1 184200000 186000000 gneg
band hs3 q27.2 q27.2 186000000 187500000 gpos25
band hs3 q27.3 q27.3 187500000 189400000 gneg
band hs3 q28 q28 189400000 193800000 gpos75
band hs3 q29 q29 193800000 199501827 gneg
band hs4 p16.3 p16.3 0 3100000 gneg
band hs4 p16.2 p16.2 3100000 5200000 gpos25
band hs4 p16.1 p16.1 5200000 10900000 gneg
band hs4 p15.33 p15.33 10900000 15300000 gpos50
band hs4 p15.32 p15.32 15300000 18500000 gneg
band hs4 p15.31 p15.31 18500000 23100000 gpos75
band hs4 p15.2 p15.2 23100000 27900000 gneg
band hs4 p15.1 p15.1 27900000 35500000 gpos100
band hs4 p14 p14 35500000 40900000 gneg
band hs4 p13 p13 40900000 45600000 gpos50
band hs4 p12 p12 45600000 48700000 gneg
band hs4 p11 p11 48700000 50700000 acen
band hs4 q11 q11 50700000 52400000 acen
band hs4 q12 q12 52400000 59200000 gneg
band hs4 q13.1 q13.1 59200000 66300000 gpos100
band hs4 q13.2 q13.2 66300000 70400000 gneg
band hs4 q13.3 q13.3 70400000 76500000 gpos75
band hs4 q21.1 q21.1 76500000 79200000 gneg
band hs4 q21.21 q21.21 79200000 82600000 gpos50
band hs4 q21.22 q21.22 82600000 84300000 gneg
band hs4 q21.23 q21.23 84300000 87100000 gpos25
band hs4 q21.3 q21.3 87100000 88200000 gneg
band hs4 q22.1 q22.1 88200000 94000000 gpos75
band hs4 q22.2 q22.2 94000000 95400000 gneg
band hs4 q22.3 q22.3 95400000 99100000 gpos75
band hs4 q23 q23 99100000 102500000 gneg
band hs4 q24 q24 102500000 107900000 gpos50
band hs4 q25 q25 107900000 114100000 gneg
band hs4 q26 q26 114100000 120600000 gpos75
band hs4 q27 q27 120600000 124000000 gneg
band hs4 q28.1 q28.1 124000000 129100000 gpos50
band hs4 q28.2 q28.2 129100000 131300000 gneg
band hs4 q28.3 q28.3 131300000 139500000 gpos100
band hs4 q31.1 q31.1 139500000 141700000 gneg
band hs4 q31.21 q31.21 141700000 145000000 gpos25
band hs4 q31.22 q31.22 145000000 147700000 gneg
band hs4 q31.23 q31.23 147700000 151000000 gpos25
band hs4 q31.3 q31.3 151000000 155100000 gneg
band hs4 q32.1 q32.1 155100000 161500000 gpos100
band hs4 q32.2 q32.2 161500000 164500000 gneg
band hs4 q32.3 q32.3 164500000 170400000 gpos100
band hs4 q33 q33 170400000 172200000 gneg
band hs4 q34.1 q34.1 172200000 176600000 gpos75
band hs4 q34.2 q34.2 176600000 177800000 gneg
band hs4 q34.3 q34.3 177800000 182600000 gpos100
band hs4 q35.1 q35.1 182600000 187300000 gneg
band hs4 q35.2 q35.2 187300000 191273063 gpos25
band hs5 p15.33 p15.33 0 4400000 gneg
band hs5 p15.32 p15.32 4400000 6000000 gpos25
band hs5 p15.31 p15.31 6000000 8200000 gneg
band hs5 p15.2 p15.2 8200000 15100000 gpos50
band hs5 p15.1 p15.1 15100000 18500000 gneg
band hs5 p14.3 p14.3 18500000 23300000 gpos100
band hs5 p14.2 p14.2 23300000 24700000 gneg
band hs5 p14.1 p14.1 24700000 29300000 gpos100
band hs5 p13.3 p13.3 29300000 34400000 gneg
band hs5 p13.2 p13.2 34400000 38500000 gpos25
band hs5 p13.1 p13.1 38500000 42400000 gneg
band hs5 p12 p12 42400000 45800000 gpos50
band hs5 p11 p11 45800000 47700000 acen
band hs5 q11.1 q11.1 47700000 50500000 acen
band hs5 q11.2 q11.2 50500000 58900000 gneg
band hs5 q12.1 q12.1 58900000 63000000 gpos75
band hs5 q12.2 q12.2 63000000 63700000 gneg
band hs5 q12.3 q12.3 63700000 66500000 gpos75
band hs5 q13.1 q13.1 66500000 68400000 gneg
band hs5 q13.2 q13.2 68400000 73300000 gpos50
band hs5 q13.3 q13.3 73300000 76400000 gneg
band hs5 q14.1 q14.1 76400000 81300000 gpos50
band hs5 q14.2 q14.2 81300000 82800000 gneg
band hs5 q14.3 q14.3 82800000 91900000 gpos100
band hs5 q15 q15 91900000 97300000 gneg
band hs5 q21.1 q21.1 97300000 102800000 gpos100
band hs5 q21.2 q21.2 102800000 104500000 gneg
band hs5 q21.3 q21.3 104500000 109600000 gpos100
band hs5 q22.1 q22.1 109600000 111500000 gneg
band hs5 q22.2 q22.2 111500000 113100000 gpos50
band hs5 q22.3 q22.3 113100000 115200000 gneg
band hs5 q23.1 q23.1 115200000 121500000 gpos100
band hs5 q23.2 q23.2 121500000 127300000 gneg
band hs5 q23.3 q23.3 127300000 130400000 gpos100
band hs5 q31.1 q31.1 130400000 135400000 gneg
band hs5 q31.2 q31.2 135400000 139000000 gpos25
band hs5 q31.3 q31.3 139000000 143100000 gneg
band hs5 q32 q32 143100000 147200000 gpos75
band hs5 q33.1 q33.1 147200000 152100000 gneg
band hs5 q33.2 q33.2 152100000 155600000 gpos50
band hs5 q33.3 q33.3 155600000 159900000 gneg
band hs5 q34 q34 159900000 167400000 gpos100
band hs5 q35.1 q35.1 167400000 172200000 gneg
band hs5 q35.2 q35.2 172200000 176500000 gpos25
band hs5 q35.3 q35.3 176500000 180857866 gneg
band hs6 p25.3 p25.3 0 2300000 gneg
band hs6 p25.2 p25.2 2300000 4100000 gpos25
band hs6 p25.1 p25.1 4100000 7000000 gneg
band hs6 p24.3 p24.3 7000000 10600000 gpos50
band hs6 p24.2 p24.2 10600000 11200000 gneg
band hs6 p24.1 p24.1 11200000 13500000 gpos25
band hs6 p23 p23 13500000 15500000 gneg
band hs6 p22.3 p22.3 15500000 23500000 gpos75
band hs6 p22.2 p22.2 23500000 26100000 gneg
band hs6 p22.1 p22.1 26100000 29900000 gpos50
band hs6 p21.33 p21.33 29900000 31900000 gneg
band hs6 p21.32 p21.32 31900000 33600000 gpos25
band hs6 p21.31 p21.31 33600000 36800000 gneg
band hs6 p21.2 p21.2 36800000 40600000 gpos25
band hs6 p21.1 p21.1 40600000 45200000 gneg
band hs6 p12.3 p12.3 45200000 51100000 gpos100
band hs6 p12.2 p12.2 51100000 52600000 gneg
band hs6 p12.1 p12.1 52600000 57200000 gpos100
band hs6 p11.2 p11.2 57200000 58400000 gneg
band hs6 p11.1 p11.1 58400000 60500000 acen
band hs6 q11.1 q11.1 60500000 63400000 acen
band hs6 q11.2 q11.2 63400000 63500000 gneg
band hs6 q12 q12 63500000 70000000 gpos100
band hs6 q13 q13 70000000 75900000 gneg
band hs6 q14.1 q14.1 75900000 83900000 gpos50
band hs6 q14.2 q14.2 83900000 84700000 gneg
band hs6 q14.3 q14.3 84700000 87500000 gpos50
band hs6 q15 q15 87500000 92100000 gneg
band hs6 q16.1 q16.1 92100000 98700000 gpos100
band hs6 q16.2 q16.2 98700000 99900000 gneg
band hs6 q16.3 q16.3 99900000 104800000 gpos100
band hs6 q21 q21 104800000 113900000 gneg
band hs6 q22.1 q22.1 113900000 117100000 gpos75
band hs6 q22.2 q22.2 117100000 118600000 gneg
band hs6 q22.31 q22.31 118600000 126200000 gpos100
band hs6 q22.32 q22.32 126200000 127300000 gneg
band hs6 q22.33 q22.33 127300000 130400000 gpos75
band hs6 q23.1 q23.1 130400000 131300000 gneg
band hs6 q23.2 q23.2 131300000 135200000 gpos50
band hs6 q23.3 q23.3 135200000 139100000 gneg
band hs6 q24.1 q24.1 139100000 142900000 gpos75
band hs6 q24.2 q24.2 142900000 145700000 gneg
band hs6 q24.3 q24.3 145700000 149100000 gpos75
band hs6 q25.1 q25.1 149100000 152600000 gneg
band hs6 q25.2 q25.2 152600000 155600000 gpos50
band hs6 q25.3 q25.3 155600000 160900000 gneg
band hs6 q26 q26 160900000 164400000 gpos50
band hs6 q27 q27 164400000 170899992 gneg
band hs7 p22.3 p22.3 0 2100000 gneg
band hs7 p22.2 p22.2 2100000 4500000 gpos25
band hs7 p22.1 p22.1 4500000 7200000 gneg
band hs7 p21.3 p21.3 7200000 13300000 gpos100
band hs7 p21.2 p21.2 13300000 15200000 gneg
band hs7 p21.1 p21.1 15200000 19500000 gpos100
band hs7 p15.3 p15.3 19500000 24900000 gneg
band hs7 p15.2 p15.2 24900000 28000000 gpos50
band hs7 p15.1 p15.1 28000000 31800000 gneg
band hs7 p14.3 p14.3 31800000 35600000 gpos75
band hs7 p14.2 p14.2 35600000 37500000 gneg
band hs7 p14.1 p14.1 37500000 43300000 gpos75
band hs7 p13 p13 43300000 46600000 gneg
band hs7 p12.3 p12.3 46600000 49800000 gpos75
band hs7 p12.2 p12.2 49800000 50900000 gneg
band hs7 p12.1 p12.1 50900000 53900000 gpos75
band hs7 p11.2 p11.2 53900000 57400000 gneg
band hs7 p11.1 p11.1 57400000 59100000 acen
band hs7 q11.1 q11.1 59100000 61100000 acen
band hs7 q11.21 q11.21 61100000 66100000 gneg
band hs7 q11.22 q11.22 66100000 71800000 gpos50
band hs7 q11.23 q11.23 71800000 77400000 gneg
band hs7 q21.11 q21.11 77400000 86200000 gpos100
band hs7 q21.12 q21.12 86200000 88000000 gneg
band hs7 q21.13 q21.13 88000000 90900000 gpos75
band hs7 q21.2 q21.2 90900000 92600000 gneg
band hs7 q21.3 q21.3 92600000 97900000 gpos75
band hs7 q22.1 q22.1 97900000 104400000 gneg
band hs7 q22.2 q22.2 104400000 105900000 gpos50
band hs7 q22.3 q22.3 105900000 107200000 gneg
band hs7 q31.1 q31.1 107200000 114400000 gpos75
band hs7 q31.2 q31.2 114400000 117200000 gneg
band hs7 q31.31 q31.31 117200000 120900000 gpos75
band hs7 q31.32 q31.32 120900000 123600000 gneg
band hs7 q31.33 q31.33 123600000 126900000 gpos75
band hs7 q32.1 q32.1 126900000 129000000 gneg
band hs7 q32.2 q32.2 129000000 130100000 gpos25
band hs7 q32.3 q32.3 130100000 132400000 gneg
band hs7 q33 q33 132400000 137300000 gpos50
band hs7 q34 q34 137300000 142800000 gneg
band hs7 q35 q35 142800000 147500000 gpos75
band hs7 q36.1 q36.1 147500000 152200000 gneg
band hs7 q36.2 q36.2 152200000 154700000 gpos25
band hs7 q36.3 q36.3 154700000 158821424 gneg
band hs8 p23.3 p23.3 0 2200000 gneg
band hs8 p23.2 p23.2 2200000 6200000 gpos75
band hs8 p23.1 p23.1 6200000 12700000 gneg
band hs8 p22 p22 12700000 19100000 gpos100
band hs8 p21.3 p21.3 19100000 23400000 gneg
band hs8 p21.2 p21.2 23400000 27400000 gpos50
band hs8 p21.1 p21.1 27400000 29700000 gneg
band hs8 p12 p12 29700000 38500000 gpos75
band hs8 p11.23 p11.23 38500000 39500000 gneg
band hs8 p11.22 p11.22 39500000 39900000 gpos25
band hs8 p11.21 p11.21 39900000 43200000 gneg
band hs8 p11.1 p11.1 43200000 45200000 acen
band hs8 q11.1 q11.1 45200000 48100000 acen
band hs8 q11.21 q11.21 48100000 50400000 gneg
band hs8 q11.22 q11.22 50400000 52800000 gpos75
band hs8 q11.23 q11.23 52800000 55600000 gneg
band hs8 q12.1 q12.1 55600000 61700000 gpos50
band hs8 q12.2 q12.2 61700000 62400000 gneg
band hs8 q12.3 q12.3 62400000 66100000 gpos50
band hs8 q13.1 q13.1 66100000 68100000 gneg
band hs8 q13.2 q13.2 68100000 70600000 gpos50
band hs8 q13.3 q13.3 70600000 74000000 gneg
band hs8 q21.11 q21.11 74000000 78500000 gpos100
band hs8 q21.12 q21.12 78500000 80300000 gneg
band hs8 q21.13 q21.13 80300000 84900000 gpos75
band hs8 q21.2 q21.2 84900000 87200000 gneg
band hs8 q21.3 q21.3 87200000 93500000 gpos100
band hs8 q22.1 q22.1 93500000 99100000 gneg
band hs8 q22.2 q22.2 99100000 101600000 gpos25
band hs8 q22.3 q22.3 101600000 106100000 gneg
band hs8 q23.1 q23.1 106100000 110600000 gpos75
band hs8 q23.2 q23.2 110600000 112200000 gneg
band hs8 q23.3 q23.3 112200000 117700000 gpos100
band hs8 q24.11 q24.11 117700000 119200000 gneg
band hs8 q24.12 q24.12 119200000 122500000 gpos50
band hs8 q24.13 q24.13 122500000 127300000 gneg
band hs8 q24.21 q24.21 127300000 131500000 gpos50
band hs8 q24.22 q24.22 131500000 136500000 gneg
band hs8 q24.23 q24.23 136500000 140000000 gpos75
band hs8 q24.3 q24.3 140000000 146274826 gneg
band hs9 p24.3 p24.3 0 2200000 gneg
band hs9 p24.2 p24.2 2200000 4600000 gpos25
band hs9 p24.1 p24.1 4600000 9000000 gneg
band hs9 p23 p23 9000000 14100000 gpos75
band hs9 p22.3 p22.3 14100000 16600000 gneg
band hs9 p22.2 p22.2 16600000 18500000 gpos25
band hs9 p22.1 p22.1 18500000 19900000 gneg
band hs9 p21.3 p21.3 19900000 25500000 gpos100
band hs9 p21.2 p21.2 25500000 28100000 gneg
band hs9 p21.1 p21.1 28100000 32800000 gpos100
band hs9 p13.3 p13.3 32800000 36300000 gneg
band hs9 p13.2 p13.2 36300000 38000000 gpos25
band hs9 p13.1 p13.1 38000000 40200000 gneg
band hs9 p12 p12 40200000 42400000 gpos50
band hs9 p11.2 p11.2 42400000 46700000 gneg
band hs9 p11.1 p11.1 46700000 51800000 acen
band hs9 q11 q11 51800000 60300000 acen
band hs9 q12 q12 60300000 70000000 gvar
band hs9 q13 q13 70000000 70500000 gneg
band hs9 q21.11 q21.11 70500000 72700000 gpos25
band hs9 q21.12 q21.12 72700000 73100000 gneg
band hs9 q21.13 q21.13 73100000 79300000 gpos50
band hs9 q21.2 q21.2 79300000 80300000 gneg
band hs9 q21.31 q21.31 80300000 83400000 gpos50
band hs9 q21.32 q21.32 83400000 86100000 gneg
band hs9 q21.33 q21.33 86100000 89600000 gpos50
band hs9 q22.1 q22.1 89600000 91000000 gneg
band hs9 q22.2 q22.2 91000000 93000000 gpos25
band hs9 q22.31 q22.31 93000000 95600000 gneg
band hs9 q22.32 q22.32 95600000 98200000 gpos25
band hs9 q22.33 q22.33 98200000 101600000 gneg
band hs9 q31.1 q31.1 101600000 107200000 gpos100
band hs9 q31.2 q31.2 107200000 110300000 gneg
band hs9 q31.3 q31.3 110300000 113900000 gpos25
band hs9 q32 q32 113900000 116700000 gneg
band hs9 q33.1 q33.1 116700000 122000000 gpos75
band hs9 q33.2 q33.2 122000000 125800000 gneg
band hs9 q33.3 q33.3 125800000 129300000 gpos25
band hs9 q34.11 q34.11 129300000 132500000 gneg
band hs9 q34.12 q34.12 132500000 132800000 gpos25
band hs9 q34.13 q34.13 132800000 134900000 gneg
band hs9 q34.2 q34.2 134900000 136600000 gpos25
band hs9 q34.3 q34.3 136600000 140273252 gneg
band hs10 p15.3 p15.3 0 3000000 gneg
band hs10 p15.2 p15.2 3000000 3800000 gpos25
band hs10 p15.1 p15.1 3800000 6700000 gneg
band hs10 p14 p14 6700000 12300000 gpos75
band hs10 p13 p13 12300000 17300000 gneg
band hs10 p12.33 p12.33 17300000 19900000 gpos75
band hs10 p12.32 p12.32 19900000 20500000 gneg
band hs10 p12.31 p12.31 20500000 22800000 gpos75
band hs10 p12.2 p12.2 22800000 24100000 gneg
band hs10 p12.1 p12.1 24100000 28300000 gpos50
band hs10 p11.23 p11.23 28300000 31400000 gneg
band hs10 p11.22 p11.22 31400000 34500000 gpos25
band hs10 p11.21 p11.21 34500000 38800000 gneg
band hs10 p11.1 p11.1 38800000 40300000 acen
band hs10 q11.1 q11.1 40300000 42100000 acen
band hs10 q11.21 q11.21 42100000 46100000 gneg
band hs10 q11.22 q11.22 46100000 50100000 gpos25
band hs10 q11.23 q11.23 50100000 53300000 gneg
band hs10 q21.1 q21.1 53300000 61200000 gpos100
band hs10 q21.2 q21.2 61200000 64800000 gneg
band hs10 q21.3 q21.3 64800000 71300000 gpos100
band hs10 q22.1 q22.1 71300000 74600000 gneg
band hs10 q22.2 q22.2 74600000 77400000 gpos50
band hs10 q22.3 q22.3 77400000 82000000 gneg
band hs10 q23.1 q23.1 82000000 87900000 gpos100
band hs10 q23.2 q23.2 87900000 89600000 gneg
band hs10 q23.31 q23.31 89600000 92900000 gpos75
band hs10 q23.32 q23.32 92900000 94200000 gneg
band hs10 q23.33 q23.33 94200000 98000000 gpos50
band hs10 q24.1 q24.1 98000000 99400000 gneg
band hs10 q24.2 q24.2 99400000 102000000 gpos50
band hs10 q24.31 q24.31 102000000 103000000 gneg
band hs10 q24.32 q24.32 103000000 104900000 gpos25
band hs10 q24.33 q24.33 104900000 105700000 gneg
band hs10 q25.1 q25.1 105700000 111800000 gpos100
band hs10 q25.2 q25.2 111800000 114900000 gneg
band hs10 q25.3 q25.3 114900000 119100000 gpos75
band hs10 q26.11 q26.11 119100000 121700000 gneg
band hs10 q26.12 q26.12 121700000 123100000 gpos50
band hs10 q26.13 q26.13 123100000 127400000 gneg
band hs10 q26.2 q26.2 127400000 130500000 gpos50
band hs10 q26.3 q26.3 130500000 135374737 gneg
band hs11 p15.5 p15.5 0 2800000 gneg
band hs11 p15.4 p15.4 2800000 10700000 gpos50
band hs11 p15.3 p15.3 10700000 12600000 gneg
band hs11 p15.2 p15.2 12600000 16100000 gpos50
band hs11 p15.1 p15.1 16100000 21600000 gneg
band hs11 p14.3 p14.3 21600000 26000000 gpos100
band hs11 p14.2 p14.2 26000000 27200000 gneg
band hs11 p14.1 p14.1 27200000 31000000 gpos75
band hs11 p13 p13 31000000 36400000 gneg
band hs11 p12 p12 36400000 43400000 gpos100
band hs11 p11.2 p11.2 43400000 48800000 gneg
band hs11 p11.12 p11.12 48800000 51400000 gpos75
band hs11 p11.11 p11.11 51400000 52900000 acen
band hs11 q11 q11 52900000 56400000 acen
band hs11 q12.1 q12.1 56400000 59700000 gpos75
band hs11 q12.2 q12.2 59700000 61400000 gneg
band hs11 q12.3 q12.3 61400000 63100000 gpos25
band hs11 q13.1 q13.1 63100000 67100000 gneg
band hs11 q13.2 q13.2 67100000 69200000 gpos25
band hs11 q13.3 q13.3 69200000 70700000 gneg
band hs11 q13.4 q13.4 70700000 74900000 gpos50
band hs11 q13.5 q13.5 74900000 76700000 gneg
band hs11 q14.1 q14.1 76700000 85300000 gpos100
band hs11 q14.2 q14.2 85300000 87900000 gneg
band hs11 q14.3 q14.3 87900000 92300000 gpos100
band hs11 q21 q21 92300000 96700000 gneg
band hs11 q22.1 q22.1 96700000 101600000 gpos100
band hs11 q22.2 q22.2 101600000 102400000 gneg
band hs11 q22.3 q22.3 102400000 110000000 gpos100
band hs11 q23.1 q23.1 110000000 112800000 gneg
band hs11 q23.2 q23.2 112800000 115400000 gpos50
band hs11 q23.3 q23.3 115400000 120700000 gneg
band hs11 q24.1 q24.1 120700000 123500000 gpos50
band hs11 q24.2 q24.2 123500000 127400000 gneg
band hs11 q24.3 q24.3 127400000 130300000 gpos50
band hs11 q25 q25 130300000 134452384 gneg
band hs12 p13.33 p13.33 0 3100000 gneg
band hs12 p13.32 p13.32 3100000 5300000 gpos25
band hs12 p13.31 p13.31 5300000 10000000 gneg
band hs12 p13.2 p13.2 10000000 12600000 gpos75
band hs12 p13.1 p13.1 12600000 14800000 gneg
band hs12 p12.3 p12.3 14800000 19900000 gpos100
band hs12 p12.2 p12.2 19900000 21200000 gneg
band hs12 p12.1 p12.1 21200000 26300000 gpos100
band hs12 p11.23 p11.23 26300000 27700000 gneg
band hs12 p11.22 p11.22 27700000 30600000 gpos50
band hs12 p11.21 p11.21 30600000 33200000 gneg
band hs12 p11.1 p11.1 33200000 35400000 acen
band hs12 q11 q11 35400000 36500000 acen
band hs12 q12 q12 36500000 44600000 gpos100
band hs12 q13.11 q13.11 44600000 47400000 gneg
band hs12 q13.12 q13.12 47400000 48400000 gpos25
band hs12 q13.13 q13.13 48400000 53100000 gneg
band hs12 q13.2 q13.2 53100000 55200000 gpos25
band hs12 q13.3 q13.3 55200000 56300000 gneg
band hs12 q14.1 q14.1 56300000 61400000 gpos75
band hs12 q14.2 q14.2 61400000 63400000 gneg
band hs12 q14.3 q14.3 63400000 66000000 gpos50
band hs12 q15 q15 66000000 69800000 gneg
band hs12 q21.1 q21.1 69800000 74100000 gpos75
band hs12 q21.2 q21.2 74100000 78700000 gneg
band hs12 q21.31 q21.31 78700000 85100000 gpos100
band hs12 q21.32 q21.32 85100000 87500000 gneg
band hs12 q21.33 q21.33 87500000 91200000 gpos100
band hs12 q22 q22 91200000 94800000 gneg
band hs12 q23.1 q23.1 94800000 100000000 gpos75
band hs12 q23.2 q23.2 100000000 102400000 gneg
band hs12 q23.3 q23.3 102400000 107500000 gpos50
band hs12 q24.11 q24.11 107500000 110200000 gneg
band hs12 q24.12 q24.12 110200000 110800000 gpos25
band hs12 q24.13 q24.13 110800000 112800000 gneg
band hs12 q24.21 q24.21 112800000 115300000 gpos50
band hs12 q24.22 q24.22 115300000 116700000 gneg
band hs12 q24.23 q24.23 116700000 119100000 gpos50
band hs12 q24.31 q24.31 119100000 124500000 gneg
band hs12 q24.32 q24.32 124500000 128700000 gpos50
band hs12 q24.33 q24.33 128700000 132349534 gneg
band hs13 p13 p13 0 3800000 gvar
band hs13 p12 p12 3800000 8300000 stalk
band hs13 p11.2 p11.2 8300000 13500000 gvar
band hs13 p11.1 p11.1 13500000 16000000 acen
band hs13 q11 q11 16000000 18400000 acen
band hs13 q12.11 q12.11 18400000 22200000 gneg
band hs13 q12.12 q12.12 22200000 24400000 gpos25
band hs13 q12.13 q12.13 24400000 26700000 gneg
band hs13 q12.2 q12.2 26700000 27800000 gpos25
band hs13 q12.3 q12.3 27800000 31100000 gneg
band hs13 q13.1 q13.1 31100000 32900000 gpos50
band hs13 q13.2 q13.2 32900000 34700000 gneg
band hs13 q13.3 q13.3 34700000 39500000 gpos75
band hs13 q14.11 q14.11 39500000 44300000 gneg
band hs13 q14.12 q14.12 44300000 45900000 gpos25
band hs13 q14.13 q14.13 45900000 46200000 gneg
band hs13 q14.2 q14.2 46200000 48900000 gpos50
band hs13 q14.3 q14.3 48900000 52200000 gneg
band hs13 q21.1 q21.1 52200000 57600000 gpos100
band hs13 q21.2 q21.2 57600000 60500000 gneg
band hs13 q21.31 q21.31 60500000 64100000 gpos75
band hs13 q21.32 q21.32 64100000 67200000 gneg
band hs13 q21.33 q21.33 67200000 72100000 gpos100
band hs13 q22.1 q22.1 72100000 74200000 gneg
band hs13 q22.2 q22.2 74200000 76000000 gpos50
band hs13 q22.3 q22.3 76000000 77800000 gneg
band hs13 q31.1 q31.1 77800000 86500000 gpos100
band hs13 q31.2 q31.2 86500000 88800000 gneg
band hs13 q31.3 q31.3 88800000 93800000 gpos100
band hs13 q32.1 q32.1 93800000 97000000 gneg
band hs13 q32.2 q32.2 97000000 98100000 gpos25
band hs13 q32.3 q32.3 98100000 100500000 gneg
band hs13 q33.1 q33.1 100500000 103700000 gpos100
band hs13 q33.2 q33.2 103700000 105800000 gneg
band hs13 q33.3 q33.3 105800000 109100000 gpos100
band hs13 q34 q34 109100000 114142980 gneg
band hs14 p13 p13 0 3100000 gvar
band hs14 p12 p12 3100000 6700000 stalk
band hs14 p11.2 p11.2 6700000 13600000 gvar
band hs14 p11.1 p11.1 13600000 15600000 acen
band hs14 q11.1 q11.1 15600000 19100000 acen
band hs14 q11.2 q11.2 19100000 23600000 gneg
band hs14 q12 q12 23600000 31800000 gpos100
band hs14 q13.1 q13.1 31800000 34100000 gneg
band hs14 q13.2 q13.2 34100000 35600000 gpos50
band hs14 q13.3 q13.3 35600000 36900000 gneg
band hs14 q21.1 q21.1 36900000 41000000 gpos100
band hs14 q21.2 q21.2 41000000 43200000 gneg
band hs14 q21.3 q21.3 43200000 48300000 gpos100
band hs14 q22.1 q22.1 48300000 52300000 gneg
band hs14 q22.2 q22.2 52300000 54400000 gpos25
band hs14 q22.3 q22.3 54400000 55800000 gneg
band hs14 q23.1 q23.1 55800000 61200000 gpos75
band hs14 q23.2 q23.2 61200000 64000000 gneg
band hs14 q23.3 q23.3 64000000 67000000 gpos50
band hs14 q24.1 q24.1 67000000 69300000 gneg
band hs14 q24.2 q24.2 69300000 72900000 gpos50
band hs14 q24.3 q24.3 72900000 78400000 gneg
band hs14 q31.1 q31.1 78400000 82600000 gpos100
band hs14 q31.2 q31.2 82600000 84000000 gneg
band hs14 q31.3 q31.3 84000000 88900000 gpos100
band hs14 q32.11 q32.11 88900000 90500000 gneg
band hs14 q32.12 q32.12 90500000 92800000 gpos25
band hs14 q32.13 q32.13 92800000 95400000 gneg
band hs14 q32.2 q32.2 95400000 100400000 gpos50
band hs14 q32.31 q32.31 100400000 102200000 gneg
band hs14 q32.32 q32.32 102200000 103000000 gpos50
band hs14 q32.33 q32.33 103000000 106368585 gneg
band hs15 p13 p13 0 3500000 gvar
band hs15 p12 p12 3500000 7900000 stalk
band hs15 p11.2 p11.2 7900000 14100000 gvar
band hs15 p11.1 p11.1 14100000 17000000 acen
band hs15 q11.1 q11.1 17000000 18400000 acen
band hs15 q11.2 q11.2 18400000 23300000 gneg
band hs15 q12 q12 23300000 25700000 gpos50
band hs15 q13.1 q13.1 25700000 28000000 gneg
band hs15 q13.2 q13.2 28000000 29000000 gpos50
band hs15 q13.3 q13.3 29000000 31400000 gneg
band hs15 q14 q14 31400000 37900000 gpos75
band hs15 q15.1 q15.1 37900000 40700000 gneg
band hs15 q15.2 q15.2 40700000 41400000 gpos25
band hs15 q15.3 q15.3 41400000 42700000 gneg
band hs15 q21.1 q21.1 42700000 47600000 gpos75
band hs15 q21.2 q21.2 47600000 51100000 gneg
band hs15 q21.3 q21.3 51100000 55800000 gpos75
band hs15 q22.1 q22.1 55800000 57100000 gneg
band hs15 q22.2 q22.2 57100000 61500000 gpos25
band hs15 q22.31 q22.31 61500000 64900000 gneg
band hs15 q22.32 q22.32 64900000 65000000 gpos25
band hs15 q22.33 q22.33 65000000 65300000 gneg
band hs15 q23 q23 65300000 70400000 gpos25
band hs15 q24.1 q24.1 70400000 73100000 gneg
band hs15 q24.2 q24.2 73100000 74400000 gpos25
band hs15 q24.3 q24.3 74400000 76100000 gneg
band hs15 q25.1 q25.1 76100000 79500000 gpos50
band hs15 q25.2 q25.2 79500000 83000000 gneg
band hs15 q25.3 q25.3 83000000 86900000 gpos50
band hs15 q26.1 q26.1 86900000 92100000 gneg
band hs15 q26.2 q26.2 92100000 96300000 gpos50
band hs15 q26.3 q26.3 96300000 100338915 gneg
band hs16 p13.3 p13.3 0 6300000 gneg
band hs16 p13.2 p13.2 6300000 10300000 gpos50
band hs16 p13.13 p13.13 10300000 12500000 gneg
band hs16 p13.12 p13.12 12500000 14700000 gpos50
band hs16 p13.11 p13.11 14700000 16700000 gneg
band hs16 p12.3 p12.3 16700000 20500000 gpos50
band hs16 p12.2 p12.2 20500000 21700000 gneg
band hs16 p12.1 p12.1 21700000 27600000 gpos50
band hs16 p11.2 p11.2 27600000 34400000 gneg
band hs16 p11.1 p11.1 34400000 38200000 acen
band hs16 q11.1 q11.1 38200000 40700000 acen
band hs16 q11.2 q11.2 40700000 45500000 gvar
band hs16 q12.1 q12.1 45500000 51200000 gneg
band hs16 q12.2 q12.2 51200000 54500000 gpos50
band hs16 q13 q13 54500000 56700000 gneg
band hs16 q21 q21 56700000 65200000 gpos100
band hs16 q22.1 q22.1 65200000 69400000 gneg
band hs16 q22.2 q22.2 69400000 69800000 gpos50
band hs16 q22.3 q22.3 69800000 73300000 gneg
band hs16 q23.1 q23.1 73300000 78200000 gpos75
band hs16 q23.2 q23.2 78200000 80500000 gneg
band hs16 q23.3 q23.3 80500000 82700000 gpos50
band hs16 q24.1 q24.1 82700000 85600000 gneg
band hs16 q24.2 q24.2 85600000 87200000 gpos25
band hs16 q24.3 q24.3 87200000 88827254 gneg
band hs17 p13.3 p13.3 0 3600000 gneg
band hs17 p13.2 p13.2 3600000 6800000 gpos50
band hs17 p13.1 p13.1 6800000 11200000 gneg
band hs17 p12 p12 11200000 15900000 gpos75
band hs17 p11.2 p11.2 15900000 22100000 gneg
band hs17 p11.1 p11.1 22100000 22200000 acen
band hs17 q11.1 q11.1 22200000 23200000 acen
band hs17 q11.2 q11.2 23200000 28800000 gneg
band hs17 q12 q12 28800000 35400000 gpos50
band hs17 q21.1 q21.1 35400000 35600000 gneg
band hs17 q21.2 q21.2 35600000 37800000 gpos25
band hs17 q21.31 q21.31 37800000 41900000 gneg
band hs17 q21.32 q21.32 41900000 44800000 gpos25
band hs17 q21.33 q21.33 44800000 47600000 gneg
band hs17 q22 q22 47600000 54900000 gpos75
band hs17 q23.1 q23.1 54900000 55600000 gneg
band hs17 q23.2 q23.2 55600000 58400000 gpos75
band hs17 q23.3 q23.3 58400000 59900000 gneg
band hs17 q24.1 q24.1 59900000 61600000 gpos50
band hs17 q24.2 q24.2 61600000 64600000 gneg
band hs17 q24.3 q24.3 64600000 68400000 gpos75
band hs17 q25.1 q25.1 68400000 72200000 gneg
band hs17 q25.2 q25.2 72200000 72900000 gpos25
band hs17 q25.3 q25.3 72900000 78774742 gneg
band hs18 p11.32 p11.32 0 2900000 gneg
band hs18 p11.31 p11.31 2900000 7200000 gpos50
band hs18 p11.23 p11.23 7200000 8500000 gneg
band hs18 p11.22 p11.22 8500000 10900000 gpos25
band hs18 p11.21 p11.21 10900000 15400000 gneg
band hs18 p11.1 p11.1 15400000 16100000 acen
band hs18 q11.1 q11.1 16100000 17300000 acen
band hs18 q11.2 q11.2 17300000 23300000 gneg
band hs18 q12.1 q12.1 23300000 31000000 gpos100
band hs18 q12.2 q12.2 31000000 35500000 gneg
band hs18 q12.3 q12.3 35500000 41800000 gpos75
band hs18 q21.1 q21.1 41800000 46400000 gneg
band hs18 q21.2 q21.2 46400000 52000000 gpos75
band hs18 q21.31 q21.31 52000000 54400000 gneg
band hs18 q21.32 q21.32 54400000 57100000 gpos50
band hs18 q21.33 q21.33 57100000 59800000 gneg
band hs18 q22.1 q22.1 59800000 64900000 gpos100
band hs18 q22.2 q22.2 64900000 66900000 gneg
band hs18 q22.3 q22.3 66900000 71300000 gpos25
band hs18 q23 q23 71300000 76117153 gneg
band hs19 p13.3 p13.3 0 6900000 gneg
band hs19 p13.2 p13.2 6900000 12600000 gpos25
band hs19 p13.13 p13.13 12600000 13800000 gneg
band hs19 p13.12 p13.12 13800000 16100000 gpos25
band hs19 p13.11 p13.11 16100000 19800000 gneg
band hs19 p12 p12 19800000 26700000 gvar
band hs19 p11 p11 26700000 28500000 acen
band hs19 q11 q11 28500000 30200000 acen
band hs19 q12 q12 30200000 37100000 gvar
band hs19 q13.11 q13.11 37100000 40300000 gneg
band hs19 q13.12 q13.12 40300000 43000000 gpos25
band hs19 q13.13 q13.13 43000000 43400000 gneg
band hs19 q13.2 q13.2 43400000 47800000 gpos25
band hs19 q13.31 q13.31 47800000 50000000 gneg
band hs19 q13.32 q13.32 50000000 53800000 gpos25
band hs19 q13.33 q13.33 53800000 57600000 gneg
band hs19 q13.41 q13.41 57600000 59100000 gpos25
band hs19 q13.42 q13.42 59100000 61400000 gneg
band hs19 q13.43 q13.43 61400000 63811651 gpos25
band hs20 p13 p13 0 5000000 gneg
band hs20 p12.3 p12.3 5000000 9000000 gpos75
band hs20 p12.2 p12.2 9000000 11900000 gneg
band hs20 p12.1 p12.1 11900000 17800000 gpos75
band hs20 p11.23 p11.23 17800000 21200000 gneg
band hs20 p11.22 p11.22 21200000 22300000 gpos25
band hs20 p11.21 p11.21 22300000 25700000 gneg
band hs20 p11.1 p11.1 25700000 27100000 acen
band hs20 q11.1 q11.1 27100000 28400000 acen
band hs20 q11.21 q11.21 28400000 31500000 gneg
band hs20 q11.22 q11.22 31500000 33900000 gpos25
band hs20 q11.23 q11.23 33900000 37100000 gneg
band hs20 q12 q12 37100000 41100000 gpos75
band hs20 q13.11 q13.11 41100000 41600000 gneg
band hs20 q13.12 q13.12 41600000 45800000 gpos25
band hs20 q13.13 q13.13 45800000 49200000 gneg
band hs20 q13.2 q13.2 49200000 54400000 gpos75
band hs20 q13.31 q13.31 54400000 55900000 gneg
band hs20 q13.32 q13.32 55900000 57900000 gpos50
band hs20 q13.33 q13.33 57900000 62435964 gneg
band hs21 p13 p13 0 2900000 gvar
band hs21 p12 p12 2900000 6300000 stalk
band hs21 p11.2 p11.2 6300000 10000000 gvar
band hs21 p11.1 p11.1 10000000 12300000 acen
band hs21 q11.1 q11.1 12300000 13200000 acen
band hs21 q11.2 q11.2 13200000 15300000 gneg
band hs21 q21.1 q21.1 15300000 22900000 gpos100
band hs21 q21.2 q21.2 22900000 25800000 gneg
band hs21 q21.3 q21.3 25800000 30500000 gpos75
band hs21 q22.11 q22.11 30500000 34700000 gneg
band hs21 q22.12 q22.12 34700000 36700000 gpos50
band hs21 q22.13 q22.13 36700000 38600000 gneg
band hs21 q22.2 q22.2 38600000 41400000 gpos50
band hs21 q22.3 q22.3 41400000 46944323 gneg
band hs22 p13 p13 0 3000000 gvar
band hs22 p12 p12 3000000 6600000 stalk
band hs22 p11.2 p11.2 6600000 9600000 gvar
band hs22 p11.1 p11.1 9600000 11800000 acen
band hs22 q11.1 q11.1 11800000 16300000 acen
band hs22 q11.21 q11.21 16300000 20500000 gneg
band hs22 q11.22 q11.22 20500000 21800000 gpos25
band hs22 q11.23 q11.23 21800000 24300000 gneg
band hs22 q12.1 q12.1 24300000 27900000 gpos50
band hs22 q12.2 q12.2 27900000 30500000 gneg
band hs22 q12.3 q12.3 30500000 35900000 gpos50
band hs22 q13.1 q13.1 35900000 39300000 gneg
band hs22 q13.2 q13.2 39300000 42600000 gpos50
band hs22 q13.31 q13.31 42600000 47000000 gneg
band hs22 q13.32 q13.32 47000000 48200000 gpos50
band hs22 q13.33 q13.33 48200000 49691432 gneg
band hsX p22.33 p22.33 0 4300000 gneg
band hsX p22.32 p22.32 4300000 6000000 gpos50
band hsX p22.31 p22.31 6000000 9500000 gneg
band hsX p22.2 p22.2 9500000 17100000 gpos50
band hsX p22.13 p22.13 17100000 19200000 gneg
band hsX p22.12 p22.12 19200000 21800000 gpos50
band hsX p22.11 p22.11 21800000 24900000 gneg
band hsX p21.3 p21.3 24900000 29400000 gpos100
band hsX p21.2 p21.2 29400000 31500000 gneg
band hsX p21.1 p21.1 31500000 37500000 gpos100
band hsX p11.4 p11.4 37500000 42300000 gneg
band hsX p11.3 p11.3 42300000 47300000 gpos75
band hsX p11.23 p11.23 47300000 49700000 gneg
band hsX p11.22 p11.22 49700000 54700000 gpos25
band hsX p11.21 p11.21 54700000 56600000 gneg
band hsX p11.1 p11.1 56600000 59500000 acen
band hsX q11.1 q11.1 59500000 65000000 acen
band hsX q11.2 q11.2 65000000 65100000 gneg
band hsX q12 q12 65100000 67700000 gpos50
band hsX q13.1 q13.1 67700000 72200000 gneg
band hsX q13.2 q13.2 72200000 73800000 gpos50
band hsX q13.3 q13.3 73800000 76000000 gneg
band hsX q21.1 q21.1 76000000 84500000 gpos100
band hsX q21.2 q21.2 84500000 86200000 gneg
band hsX q21.31 q21.31 86200000 91900000 gpos100
band hsX q21.32 q21.32 91900000 93500000 gneg
band hsX q21.33 q21.33 93500000 98200000 gpos75
band hsX q22.1 q22.1 98200000 102500000 gneg
band hsX q22.2 q22.2 102500000 103600000 gpos50
band hsX q22.3 q22.3 103600000 110500000 gneg
band hsX q23 q23 110500000 116800000 gpos75
band hsX q24 q24 116800000 120700000 gneg
band hsX q25 q25 120700000 129800000 gpos100
band hsX q26.1 q26.1 129800000 130300000 gneg
band hsX q26.2 q26.2 130300000 133500000 gpos25
band hsX q26.3 q26.3 133500000 137800000 gneg
band hsX q27.1 q27.1 137800000 140100000 gpos75
band hsX q27.2 q27.2 140100000 141900000 gneg
band hsX q27.3 q27.3 141900000 146900000 gpos100
band hsX q28 q28 146900000 154913754 gneg
band hsY p11.32 p11.32 0 1700000 gneg
band hsY p11.31 p11.31 1700000 3300000 gpos50
band hsY p11.2 p11.2 3300000 11200000 gneg
band hsY p11.1 p11.1 11200000 11300000 acen
band hsY q11.1 q11.1 11300000 12500000 acen
band hsY q11.21 q11.21 12500000 14300000 gneg
band hsY q11.221 q11.221 14300000 19000000 gpos50
band hsY q11.222 q11.222 19000000 21300000 gneg
band hsY q11.223 q11.223 21300000 25400000 gpos50
band hsY q11.23 q11.23 25400000 27200000 gneg
band hsY q12 q12 27200000 57772954 gvar
